four_to_one_line_mux_with_tri_buf/simulation/qsim/four_to_one_line_mux_with_tri_buf.msim.vcd
$comment
	File created using the following command:
		vcd file four_to_one_line_mux_with_tri_buf.msim.vcd -direction
$end
$date
	Sun Sep 29 23:15:49 2019
$end
$version
	ModelSim Version 10.5b
$end
$timescale
	1ps
$end

$scope module four_to_one_line_mux_with_tri_buf_vlg_vec_tst $end
$var reg 1 ! E $end
$var reg 4 " I [3:0] $end
$var reg 2 # S [1:0] $end
$var wire 1 $ Y $end
$var wire 1 % tri_buf_en [3] $end
$var wire 1 & tri_buf_en [2] $end
$var wire 1 ' tri_buf_en [1] $end
$var wire 1 ( tri_buf_en [0] $end

$scope module i1 $end
$var wire 1 ) gnd $end
$var wire 1 * vcc $end
$var wire 1 + unknown $end
$var tri1 1 , devclrn $end
$var tri1 1 - devpor $end
$var tri1 1 . devoe $end
$var wire 1 / ~QUARTUS_CREATED_GND~I_combout $end
$var wire 1 0 I[3]~input_o $end
$var wire 1 1 E~input_o $end
$var wire 1 2 I[1]~input_o $end
$var wire 1 3 S[1]~input_o $end
$var wire 1 4 S[0]~input_o $end
$var wire 1 5 I[0]~input_o $end
$var wire 1 6 I[2]~input_o $end
$var wire 1 7 tri_buf_0|B~1_combout $end
$var wire 1 8 three_to_eight_line_decoder_with_en_0|D[0]~0_combout $end
$var wire 1 9 three_to_eight_line_decoder_with_en_0|D[1]~1_combout $end
$var wire 1 : three_to_eight_line_decoder_with_en_0|D[2]~2_combout $end
$var wire 1 ; three_to_eight_line_decoder_with_en_0|D[3]~3_combout $end
$upscope $end
$upscope $end
$enddefinitions $end
#0
$dumpvars
0!
b0 "
b0 #
z$
0(
0'
0&
0%
0)
1*
x+
1,
1-
1.
0/
00
01
02
03
04
05
06
17
08
09
0:
0;
$end
#10000
b1 "
15
#20000
b11 "
b10 "
05
12
#30000
b11 "
15
#40000
b111 "
b101 "
b100 "
05
02
16
#50000
b101 "
15
#60000
b111 "
b110 "
05
12
#70000
b111 "
15
#80000
b1111 "
b1011 "
b1001 "
b1000 "
05
02
06
10
#90000
b1001 "
15
#100000
b1011 "
b1010 "
05
12
#110000
b1011 "
15
#120000
b1111 "
b1101 "
b1100 "
05
02
16
#130000
b1101 "
15
#140000
b1111 "
b1110 "
05
12
#150000
b1111 "
15
#160000
b1 #
b111 "
b11 "
b1 "
b0 "
05
02
06
00
14
#170000
b1 "
15
#180000
b11 "
b10 "
05
12
#190000
b11 "
15
#200000
b111 "
b101 "
b100 "
05
02
16
#210000
b101 "
15
#220000
b111 "
b110 "
05
12
#230000
b111 "
15
#240000
b1111 "
b1011 "
b1001 "
b1000 "
05
02
06
10
#250000
b1001 "
15
#260000
b1011 "
b1010 "
05
12
#270000
b1011 "
15
#280000
b1111 "
b1101 "
b1100 "
05
02
16
#290000
b1101 "
15
#300000
b1111 "
b1110 "
05
12
#310000
b1111 "
15
#320000
b11 #
b10 #
b111 "
b11 "
b1 "
b0 "
05
02
06
00
04
13
#330000
b1 "
15
#340000
b11 "
b10 "
05
12
#350000
b11 "
15
#360000
b111 "
b101 "
b100 "
05
02
16
#370000
b101 "
15
#380000
b111 "
b110 "
05
12
#390000
b111 "
15
#400000
b1111 "
b1011 "
b1001 "
b1000 "
05
02
06
10
#410000
b1001 "
15
#420000
b1011 "
b1010 "
05
12
#430000
b1011 "
15
#440000
b1111 "
b1101 "
b1100 "
05
02
16
#450000
b1101 "
15
#460000
b1111 "
b1110 "
05
12
#470000
b1111 "
15
#480000
b11 #
b111 "
b11 "
b1 "
b0 "
05
02
06
00
14
#490000
b1 "
15
#500000
b11 "
b10 "
05
12
#510000
b11 "
15
#520000
b111 "
b101 "
b100 "
05
02
16
#530000
b101 "
15
#540000
b111 "
b110 "
05
12
#550000
b111 "
15
#560000
b1111 "
b1011 "
b1001 "
b1000 "
05
02
06
10
#570000
b1001 "
15
#580000
b1011 "
b1010 "
05
12
#590000
b1011 "
15
#600000
b1111 "
b1101 "
b1100 "
05
02
16
#610000
b1101 "
15
#620000
b1111 "
b1110 "
05
12
#630000
b1111 "
15
#640000
1!
b1 #
b0 #
b111 "
b11 "
b1 "
b0 "
05
02
06
00
04
03
11
1$
18
07
0$
1(
#650000
b1 "
15
17
1$
#660000
b11 "
b10 "
05
12
07
0$
#670000
b11 "
15
17
1$
#680000
b111 "
b101 "
b100 "
05
02
16
07
0$
#690000
b101 "
15
17
1$
#700000
b111 "
b110 "
05
12
07
0$
#710000
b111 "
15
17
1$
#720000
b1111 "
b1011 "
b1001 "
b1000 "
05
02
06
10
07
0$
#730000
b1001 "
15
17
1$
#740000
b1011 "
b1010 "
05
12
07
0$
#750000
b1011 "
15
17
1$
#760000
b1111 "
b1101 "
b1100 "
05
02
16
07
0$
#770000
b1101 "
15
17
1$
#780000
b1111 "
b1110 "
05
12
07
0$
#790000
b1111 "
15
17
1$
#800000
b1 #
b111 "
b11 "
b1 "
b0 "
05
02
06
00
14
19
08
07
0$
0(
1'
#810000
b1 "
15
#820000
b11 "
b10 "
05
12
17
1$
#830000
b11 "
15
#840000
b111 "
b101 "
b100 "
05
02
16
07
0$
#850000
b101 "
15
#860000
b111 "
b110 "
05
12
17
1$
#870000
b111 "
15
#880000
b1111 "
b1011 "
b1001 "
b1000 "
05
02
06
10
07
0$
#890000
b1001 "
15
#900000
b1011 "
b1010 "
05
12
17
1$
#910000
b1011 "
15
#920000
b1111 "
b1101 "
b1100 "
05
02
16
07
0$
#930000
b1101 "
15
#940000
b1111 "
b1110 "
05
12
17
1$
#950000
b1111 "
15
#960000
b11 #
b10 #
b111 "
b11 "
b1 "
b0 "
05
02
06
00
04
13
1:
09
07
0$
0'
1&
#970000
b1 "
15
#980000
b11 "
b10 "
05
12
#990000
b11 "
15
#1000000
b111 "
b101 "
b100 "
05
02
16
17
1$
#1010000
b101 "
15
#1020000
b111 "
b110 "
05
12
#1030000
b111 "
15
#1040000
b1111 "
b1011 "
b1001 "
b1000 "
05
02
06
10
07
0$
#1050000
b1001 "
15
#1060000
b1011 "
b1010 "
05
12
#1070000
b1011 "
15
#1080000
b1111 "
b1101 "
b1100 "
05
02
16
17
1$
#1090000
b1101 "
15
#1100000
b1111 "
b1110 "
05
12
#1110000
b1111 "
15
#1120000
b11 #
b111 "
b11 "
b1 "
b0 "
05
02
06
00
14
1;
0:
07
0$
0&
1%
#1130000
b1 "
15
#1140000
b11 "
b10 "
05
12
#1150000
b11 "
15
#1160000
b111 "
b101 "
b100 "
05
02
16
#1170000
b101 "
15
#1180000
b111 "
b110 "
05
12
#1190000
b111 "
15
#1200000
b1111 "
b1011 "
b1001 "
b1000 "
05
02
06
10
17
1$
#1210000
b1001 "
15
#1220000
b1011 "
b1010 "
05
12
#1230000
b1011 "
15
#1240000
b1111 "
b1101 "
b1100 "
05
02
16
#1250000
b1101 "
15
#1260000
b1111 "
b1110 "
05
12
#1270000
b1111 "
15
