four_bit_comparator/simulation/qsim/four_bit_comparator.msim.vcd
$comment
	File created using the following command:
		vcd file four_bit_comparator.msim.vcd -direction
$end
$date
	Sun Sep 22 22:37:09 2019
$end
$version
	ModelSim Version 10.5b
$end
$timescale
	1ps
$end

$scope module four_bit_comparator_vlg_vec_tst $end
$var reg 4 ! A [3:0] $end
$var reg 4 " B [3:0] $end
$var wire 1 # AeqB $end
$var wire 1 $ AgtB $end
$var wire 1 % AltB $end

$scope module i1 $end
$var wire 1 & gnd $end
$var wire 1 ' vcc $end
$var wire 1 ( unknown $end
$var tri1 1 ) devclrn $end
$var tri1 1 * devpor $end
$var tri1 1 + devoe $end
$var wire 1 , ~QUARTUS_CREATED_GND~I_combout $end
$var wire 1 - B[3]~input_o $end
$var wire 1 . A[2]~input_o $end
$var wire 1 / A[3]~input_o $end
$var wire 1 0 B[2]~input_o $end
$var wire 1 1 WideAnd0~0_combout $end
$var wire 1 2 A[1]~input_o $end
$var wire 1 3 A[0]~input_o $end
$var wire 1 4 B[0]~input_o $end
$var wire 1 5 B[1]~input_o $end
$var wire 1 6 WideAnd0~combout $end
$var wire 1 7 AgtB~0_combout $end
$var wire 1 8 AgtB~1_combout $end
$var wire 1 9 AltB~0_combout $end
$var wire 1 : AltB~1_combout $end
$upscope $end
$upscope $end
$enddefinitions $end
#0
$dumpvars
b0 !
b0 "
1#
0$
0%
0&
1'
x(
1)
1*
1+
0,
0-
0.
0/
00
11
02
03
04
05
16
07
08
09
0:
$end
#10000
b1 !
13
17
06
0#
18
1$
#20000
b11 !
b10 !
03
12
#30000
b11 !
13
#40000
b111 !
b101 !
b100 !
03
02
1.
01
07
16
1#
06
0#
#50000
b101 !
13
17
#60000
b111 !
b110 !
03
12
#70000
b111 !
13
#80000
b1111 !
b1011 !
b1001 !
b1000 !
03
02
0.
1/
07
#90000
b1001 !
13
17
#100000
b1011 !
b1010 !
03
12
#110000
b1011 !
13
#120000
b1111 !
b1101 !
b1100 !
03
02
1.
07
#130000
b1101 !
13
17
#140000
b1111 !
b1110 !
03
12
#150000
b1111 !
13
#160000
b1 "
b111 !
b11 !
b1 !
b0 !
03
02
0.
0/
14
19
07
11
08
1:
1%
0$
#170000
b1 !
13
09
16
1#
0:
0%
#180000
b11 !
b10 !
03
12
17
06
0#
18
1$
#190000
b11 !
13
#200000
b111 !
b101 !
b100 !
03
02
1.
01
19
07
#210000
b101 !
13
09
#220000
b111 !
b110 !
03
12
17
#230000
b111 !
13
#240000
b1111 !
b1011 !
b1001 !
b1000 !
03
02
0.
1/
19
07
#250000
b1001 !
13
09
#260000
b1011 !
b1010 !
03
12
17
#270000
b1011 !
13
#280000
b1111 !
b1101 !
b1100 !
03
02
1.
19
07
#290000
b1101 !
13
09
#300000
b1111 !
b1110 !
03
12
17
#310000
b1111 !
13
#320000
b11 "
b10 "
b111 !
b11 !
b1 !
b0 !
03
02
0.
0/
04
15
19
07
11
08
1:
1%
0$
#330000
b1 !
13
#340000
b11 !
b10 !
03
12
09
16
1#
0:
0%
#350000
b11 !
13
17
06
0#
18
1$
#360000
b111 !
b101 !
b100 !
03
02
1.
01
19
07
#370000
b101 !
13
#380000
b111 !
b110 !
03
12
09
#390000
b111 !
13
17
#400000
b1111 !
b1011 !
b1001 !
b1000 !
03
02
0.
1/
19
07
#410000
b1001 !
13
#420000
b1011 !
b1010 !
03
12
09
#430000
b1011 !
13
17
#440000
b1111 !
b1101 !
b1100 !
03
02
1.
19
07
#450000
b1101 !
13
#460000
b1111 !
b1110 !
03
12
09
#470000
b1111 !
13
17
#480000
b11 "
b111 !
b11 !
b1 !
b0 !
03
02
0.
0/
14
19
07
11
08
1:
1%
0$
#490000
b1 !
13
#500000
b11 !
b10 !
03
12
#510000
b11 !
13
09
16
1#
0:
0%
#520000
b111 !
b101 !
b100 !
03
02
1.
01
19
18
06
0#
1$
#530000
b101 !
13
#540000
b111 !
b110 !
03
12
#550000
b111 !
13
09
#560000
b1111 !
b1011 !
b1001 !
b1000 !
03
02
0.
1/
19
#570000
b1001 !
13
#580000
b1011 !
b1010 !
03
12
#590000
b1011 !
13
09
#600000
b1111 !
b1101 !
b1100 !
03
02
1.
19
#610000
b1101 !
13
#620000
b1111 !
b1110 !
03
12
#630000
b1111 !
13
09
#640000
b111 "
b101 "
b100 "
b111 !
b11 !
b1 !
b0 !
03
02
0.
0/
04
05
10
1:
08
0$
1%
#650000
b1 !
13
17
#660000
b11 !
b10 !
03
12
#670000
b11 !
13
#680000
b111 !
b101 !
b100 !
03
02
1.
11
07
0:
18
1$
0%
08
16
1#
0$
#690000
b101 !
13
17
06
0#
18
1$
#700000
b111 !
b110 !
03
12
#710000
b111 !
13
#720000
b1111 !
b1011 !
b1001 !
b1000 !
03
02
0.
1/
01
07
16
1#
06
0#
#730000
b1001 !
13
17
#740000
b1011 !
b1010 !
03
12
#750000
b1011 !
13
#760000
b1111 !
b1101 !
b1100 !
03
02
1.
07
#770000
b1101 !
13
17
#780000
b1111 !
b1110 !
03
12
#790000
b1111 !
13
#800000
b101 "
b111 !
b11 !
b1 !
b0 !
03
02
0.
0/
14
19
07
1:
08
0$
1%
#810000
b1 !
13
09
#820000
b11 !
b10 !
03
12
17
#830000
b11 !
13
#840000
b111 !
b101 !
b100 !
03
02
1.
11
19
07
0:
18
1$
0%
08
1:
1%
0$
#850000
b101 !
13
09
16
1#
0:
0%
#860000
b111 !
b110 !
03
12
17
06
0#
18
1$
#870000
b111 !
13
#880000
b1111 !
b1011 !
b1001 !
b1000 !
03
02
0.
1/
01
19
07
#890000
b1001 !
13
09
#900000
b1011 !
b1010 !
03
12
17
#910000
b1011 !
13
#920000
b1111 !
b1101 !
b1100 !
03
02
1.
19
07
#930000
b1101 !
13
09
#940000
b1111 !
b1110 !
03
12
17
#950000
b1111 !
13
#960000
b111 "
b110 "
b111 !
b11 !
b1 !
b0 !
03
02
0.
0/
04
15
19
07
1:
08
0$
1%
#970000
b1 !
13
#980000
b11 !
b10 !
03
12
09
#990000
b11 !
13
17
#1000000
b111 !
b101 !
b100 !
03
02
1.
11
19
07
0:
18
1$
0%
08
1:
1%
0$
#1010000
b101 !
13
#1020000
b111 !
b110 !
03
12
09
16
1#
0:
0%
#1030000
b111 !
13
17
06
0#
18
1$
#1040000
b1111 !
b1011 !
b1001 !
b1000 !
03
02
0.
1/
01
19
07
#1050000
b1001 !
13
#1060000
b1011 !
b1010 !
03
12
09
#1070000
b1011 !
13
17
#1080000
b1111 !
b1101 !
b1100 !
03
02
1.
19
07
#1090000
b1101 !
13
#1100000
b1111 !
b1110 !
03
12
09
#1110000
b1111 !
13
17
#1120000
b111 "
b111 !
b11 !
b1 !
b0 !
03
02
0.
0/
14
19
07
1:
08
0$
1%
#1130000
b1 !
13
#1140000
b11 !
b10 !
03
12
#1150000
b11 !
13
09
#1160000
b111 !
b101 !
b100 !
03
02
1.
11
19
0:
0%
1:
1%
#1170000
b101 !
13
#1180000
b111 !
b110 !
03
12
#1190000
b111 !
13
09
16
1#
0:
0%
#1200000
b1111 !
b1011 !
b1001 !
b1000 !
03
02
0.
1/
01
19
18
06
0#
1$
#1210000
b1001 !
13
#1220000
b1011 !
b1010 !
03
12
#1230000
b1011 !
13
09
#1240000
b1111 !
b1101 !
b1100 !
03
02
1.
19
#1250000
b1101 !
13
#1260000
b1111 !
b1110 !
03
12
#1270000
b1111 !
13
09
#1280000
b1111 "
b1011 "
b1001 "
b1000 "
b111 !
b11 !
b1 !
b0 !
03
02
0.
0/
04
05
00
1-
1:
08
0$
1%
#1290000
b1 !
13
17
#1300000
b11 !
b10 !
03
12
#1310000
b11 !
13
#1320000
b111 !
b101 !
b100 !
03
02
1.
07
#1330000
b101 !
13
17
#1340000
b111 !
b110 !
03
12
#1350000
b111 !
13
#1360000
b1111 !
b1011 !
b1001 !
b1000 !
03
02
0.
1/
11
07
0:
18
1$
0%
08
16
1#
0$
#1370000
b1001 !
13
17
06
0#
18
1$
#1380000
b1011 !
b1010 !
03
12
#1390000
b1011 !
13
#1400000
b1111 !
b1101 !
b1100 !
03
02
1.
01
07
16
1#
06
0#
#1410000
b1101 !
13
17
#1420000
b1111 !
b1110 !
03
12
#1430000
b1111 !
13
#1440000
b1001 "
b111 !
b11 !
b1 !
b0 !
03
02
0.
0/
14
19
07
1:
08
0$
1%
#1450000
b1 !
13
09
#1460000
b11 !
b10 !
03
12
17
#1470000
b11 !
13
#1480000
b111 !
b101 !
b100 !
03
02
1.
19
07
#1490000
b101 !
13
09
#1500000
b111 !
b110 !
03
12
17
#1510000
b111 !
13
#1520000
b1111 !
b1011 !
b1001 !
b1000 !
03
02
0.
1/
11
19
07
0:
18
1$
0%
08
1:
1%
0$
#1530000
b1001 !
13
09
16
1#
0:
0%
#1540000
b1011 !
b1010 !
03
12
17
06
0#
18
1$
#1550000
b1011 !
13
#1560000
b1111 !
b1101 !
b1100 !
03
02
1.
01
19
07
#1570000
b1101 !
13
09
#1580000
b1111 !
b1110 !
03
12
17
#1590000
b1111 !
13
#1600000
b1011 "
b1010 "
b111 !
b11 !
b1 !
b0 !
03
02
0.
0/
04
15
19
07
1:
08
0$
1%
#1610000
b1 !
13
#1620000
b11 !
b10 !
03
12
09
#1630000
b11 !
13
17
#1640000
b111 !
b101 !
b100 !
03
02
1.
19
07
#1650000
b101 !
13
#1660000
b111 !
b110 !
03
12
09
#1670000
b111 !
13
17
#1680000
b1111 !
b1011 !
b1001 !
b1000 !
03
02
0.
1/
11
19
07
0:
18
1$
0%
08
1:
1%
0$
#1690000
b1001 !
13
#1700000
b1011 !
b1010 !
03
12
09
16
1#
0:
0%
#1710000
b1011 !
13
17
06
0#
18
1$
#1720000
b1111 !
b1101 !
b1100 !
03
02
1.
01
19
07
#1730000
b1101 !
13
#1740000
b1111 !
b1110 !
03
12
09
#1750000
b1111 !
13
17
#1760000
b1011 "
b111 !
b11 !
b1 !
b0 !
03
02
0.
0/
14
19
07
1:
08
0$
1%
#1770000
b1 !
13
#1780000
b11 !
b10 !
03
12
#1790000
b11 !
13
09
#1800000
b111 !
b101 !
b100 !
03
02
1.
19
#1810000
b101 !
13
#1820000
b111 !
b110 !
03
12
#1830000
b111 !
13
09
#1840000
b1111 !
b1011 !
b1001 !
b1000 !
03
02
0.
1/
11
19
0:
0%
1:
1%
#1850000
b1001 !
13
#1860000
b1011 !
b1010 !
03
12
#1870000
b1011 !
13
09
16
1#
0:
0%
#1880000
b1111 !
b1101 !
b1100 !
03
02
1.
01
19
18
06
0#
1$
#1890000
b1101 !
13
#1900000
b1111 !
b1110 !
03
12
#1910000
b1111 !
13
09
#1920000
b1111 "
b1101 "
b1100 "
b111 !
b11 !
b1 !
b0 !
03
02
0.
0/
04
05
10
1:
08
0$
1%
#1930000
b1 !
13
17
#1940000
b11 !
b10 !
03
12
#1950000
b11 !
13
#1960000
b111 !
b101 !
b100 !
03
02
1.
07
#1970000
b101 !
13
17
#1980000
b111 !
b110 !
03
12
#1990000
b111 !
13
#2000000
b1111 !
b1011 !
b1001 !
b1000 !
03
02
0.
1/
07
#2010000
b1001 !
13
17
#2020000
b1011 !
b1010 !
03
12
#2030000
b1011 !
13
#2040000
b1111 !
b1101 !
b1100 !
03
02
1.
11
07
0:
18
1$
0%
08
16
1#
0$
#2050000
b1101 !
13
17
06
0#
18
1$
#2060000
b1111 !
b1110 !
03
12
#2070000
b1111 !
13
#2080000
b1101 "
b111 !
b11 !
b1 !
b0 !
03
02
0.
0/
14
19
07
01
1:
08
0$
1%
#2090000
b1 !
13
09
#2100000
b11 !
b10 !
03
12
17
#2110000
b11 !
13
#2120000
b111 !
b101 !
b100 !
03
02
1.
19
07
#2130000
b101 !
13
09
#2140000
b111 !
b110 !
03
12
17
#2150000
b111 !
13
#2160000
b1111 !
b1011 !
b1001 !
b1000 !
03
02
0.
1/
19
07
#2170000
b1001 !
13
09
#2180000
b1011 !
b1010 !
03
12
17
#2190000
b1011 !
13
#2200000
b1111 !
b1101 !
b1100 !
03
02
1.
11
19
07
0:
18
1$
0%
08
1:
1%
0$
#2210000
b1101 !
13
09
16
1#
0:
0%
#2220000
b1111 !
b1110 !
03
12
17
06
0#
18
1$
#2230000
b1111 !
13
#2240000
b1111 "
b1110 "
b111 !
b11 !
b1 !
b0 !
03
02
0.
0/
04
15
19
07
01
1:
08
0$
1%
#2250000
b1 !
13
#2260000
b11 !
b10 !
03
12
09
#2270000
b11 !
13
17
#2280000
b111 !
b101 !
b100 !
03
02
1.
19
07
#2290000
b101 !
13
#2300000
b111 !
b110 !
03
12
09
#2310000
b111 !
13
17
#2320000
b1111 !
b1011 !
b1001 !
b1000 !
03
02
0.
1/
19
07
#2330000
b1001 !
13
#2340000
b1011 !
b1010 !
03
12
09
#2350000
b1011 !
13
17
#2360000
b1111 !
b1101 !
b1100 !
03
02
1.
11
19
07
0:
18
1$
0%
08
1:
1%
0$
#2370000
b1101 !
13
#2380000
b1111 !
b1110 !
03
12
09
16
1#
0:
0%
#2390000
b1111 !
13
17
06
0#
18
1$
#2400000
b1111 "
b111 !
b11 !
b1 !
b0 !
03
02
0.
0/
14
19
07
01
1:
08
0$
1%
#2410000
b1 !
13
#2420000
b11 !
b10 !
03
12
#2430000
b11 !
13
09
#2440000
b111 !
b101 !
b100 !
03
02
1.
19
#2450000
b101 !
13
#2460000
b111 !
b110 !
03
12
#2470000
b111 !
13
09
#2480000
b1111 !
b1011 !
b1001 !
b1000 !
03
02
0.
1/
19
#2490000
b1001 !
13
#2500000
b1011 !
b1010 !
03
12
#2510000
b1011 !
13
09
#2520000
b1111 !
b1101 !
b1100 !
03
02
1.
11
19
0:
0%
1:
1%
#2530000
b1101 !
13
#2540000
b1111 !
b1110 !
03
12
#2550000
b1111 !
13
09
16
1#
0:
0%
