one_to_four_line_demux/simulation/qsim/one_to_four_line_demux.msim.vcd
$comment
	File created using the following command:
		vcd file one_to_four_line_demux.msim.vcd -direction
$end
$date
	Wed Sep 25 21:04:27 2019
$end
$version
	ModelSim Version 10.5b
$end
$timescale
	1ps
$end

$scope module one_to_four_line_demux_vlg_vec_tst $end
$var reg 1 ! A $end
$var reg 1 " B $end
$var reg 1 # E $end
$var wire 1 $ D [3] $end
$var wire 1 % D [2] $end
$var wire 1 & D [1] $end
$var wire 1 ' D [0] $end

$scope module i1 $end
$var wire 1 ( gnd $end
$var wire 1 ) vcc $end
$var wire 1 * unknown $end
$var tri1 1 + devclrn $end
$var tri1 1 , devpor $end
$var tri1 1 - devoe $end
$var wire 1 . ~QUARTUS_CREATED_GND~I_combout $end
$var wire 1 / B~input_o $end
$var wire 1 0 A~input_o $end
$var wire 1 1 E~input_o $end
$var wire 1 2 D~0_combout $end
$var wire 1 3 D~1_combout $end
$var wire 1 4 D~2_combout $end
$var wire 1 5 D~3_combout $end
$upscope $end
$upscope $end
$enddefinitions $end
#0
$dumpvars
0!
0"
1#
1'
1&
1%
1$
0(
1)
x*
1+
1,
1-
0.
0/
00
11
12
03
04
05
$end
#10000
1"
1/
#20000
1!
0"
10
0/
#30000
1"
1/
#40000
0#
0!
0"
01
00
0/
02
0'
#50000
1"
1/
13
12
1'
0&
#60000
1!
0"
10
0/
14
03
1&
0%
#70000
1"
1/
15
04
1%
0$
