four_bit_adder_2005/simulation/qsim/four_bit_adder_2005.msim.vcd
$comment
	File created using the following command:
		vcd file four_bit_adder_2005.msim.vcd -direction
$end
$date
	Mon Sep 30 21:10:13 2019
$end
$version
	ModelSim Version 10.5b
$end
$timescale
	1ps
$end

$scope module four_bit_adder_2005_vlg_vec_tst $end
$var reg 4 ! A [3:0] $end
$var reg 4 " B [3:0] $end
$var reg 1 # Cin $end
$var wire 1 $ Cout $end
$var wire 1 % S [3] $end
$var wire 1 & S [2] $end
$var wire 1 ' S [1] $end
$var wire 1 ( S [0] $end

$scope module i1 $end
$var wire 1 ) gnd $end
$var wire 1 * vcc $end
$var wire 1 + unknown $end
$var tri1 1 , devclrn $end
$var tri1 1 - devpor $end
$var tri1 1 . devoe $end
$var wire 1 / ~QUARTUS_CREATED_GND~I_combout $end
$var wire 1 0 Cin~input_o $end
$var wire 1 1 B[0]~input_o $end
$var wire 1 2 A[0]~input_o $end
$var wire 1 3 _~1_sumout $end
$var wire 1 4 A[1]~input_o $end
$var wire 1 5 B[1]~input_o $end
$var wire 1 6 _~2 $end
$var wire 1 7 _~3 $end
$var wire 1 8 _~5_sumout $end
$var wire 1 9 A[2]~input_o $end
$var wire 1 : B[2]~input_o $end
$var wire 1 ; _~6 $end
$var wire 1 < _~7 $end
$var wire 1 = _~9_sumout $end
$var wire 1 > B[3]~input_o $end
$var wire 1 ? A[3]~input_o $end
$var wire 1 @ _~10 $end
$var wire 1 A _~11 $end
$var wire 1 B _~13_sumout $end
$var wire 1 C _~14 $end
$var wire 1 D _~15 $end
$var wire 1 E _~17_sumout $end
$upscope $end
$upscope $end
$enddefinitions $end
#0
$dumpvars
b0 !
b0 "
0#
0$
0(
0'
0&
0%
0)
1*
x+
1,
1-
1.
0/
00
01
02
03
04
05
06
07
08
09
0:
0;
0<
0=
0>
0?
0@
0A
0B
0C
0D
0E
$end
#10000
b1 !
12
13
1(
#20000
b11 !
b10 !
02
14
18
03
0(
1'
#30000
b11 !
12
13
1(
#40000
b111 !
b101 !
b100 !
02
04
19
1=
08
03
0(
0'
1&
#50000
b101 !
12
13
1(
#60000
b111 !
b110 !
02
14
18
03
0(
1'
#70000
b111 !
12
13
1(
#80000
b1111 !
b1011 !
b1001 !
b1000 !
02
04
09
1?
1B
0=
08
03
0(
0'
0&
1%
#90000
b1001 !
12
13
1(
#100000
b1011 !
b1010 !
02
14
18
03
0(
1'
#110000
b1011 !
12
13
1(
#120000
b1111 !
b1101 !
b1100 !
02
04
19
1=
08
03
0(
0'
1&
#130000
b1101 !
12
13
1(
#140000
b1111 !
b1110 !
02
14
18
03
0(
1'
#150000
b1111 !
12
13
1(
#160000
b1 "
b111 !
b11 !
b1 !
b0 !
02
04
09
0?
11
0B
0=
08
0'
0&
0%
#170000
b1 !
12
17
03
0(
18
1'
#180000
b11 !
b10 !
02
14
1;
07
08
13
1(
0'
0;
1=
18
1'
1&
0=
0&
#190000
b11 !
12
17
03
0(
1;
08
0'
1=
1&
#200000
b111 !
b101 !
b100 !
02
04
19
1@
0;
07
0=
18
13
1(
1'
0&
0@
1B
1=
08
0'
1&
1%
0B
0%
#210000
b101 !
12
17
03
0(
18
1'
#220000
b111 !
b110 !
02
14
1;
07
08
13
1(
0'
1@
0;
0=
18
1'
0&
0@
1B
1=
1&
1%
0B
0%
#230000
b111 !
12
17
03
0(
1;
08
0'
1@
0=
0&
1B
1%
#240000
b1111 !
b1011 !
b1001 !
b1000 !
02
04
09
1?
1C
0@
0;
07
0B
1=
18
13
1(
1'
1&
0%
0C
1E
1B
0=
08
0'
0&
1%
1$
0E
0$
#250000
b1001 !
12
17
03
0(
18
1'
#260000
b1011 !
b1010 !
02
14
1;
07
08
13
1(
0'
0;
1=
18
1'
1&
0=
0&
#270000
b1011 !
12
17
03
0(
1;
08
0'
1=
1&
#280000
b1111 !
b1101 !
b1100 !
02
04
19
1@
0;
07
0=
18
13
1(
1'
0&
1C
0@
0B
1=
08
0'
1&
0%
0C
1E
1B
1%
1$
0E
0$
#290000
b1101 !
12
17
03
0(
18
1'
#300000
b1111 !
b1110 !
02
14
1;
07
08
13
1(
0'
1@
0;
0=
18
1'
0&
1C
0@
0B
1=
1&
0%
0C
1E
1B
1%
1$
0E
0$
#310000
b1111 !
12
17
03
0(
1;
08
0'
1@
0=
0&
1C
0B
0%
1E
1$
#320000
b11 "
b10 "
b111 !
b11 !
b1 !
b0 !
02
04
09
0?
01
15
07
0C
0@
1B
1=
1&
1%
0;
18
0E
0B
0%
0$
1'
0=
0&
#330000
b1 !
12
13
1(
#340000
b11 !
b10 !
02
14
1<
08
03
0(
0'
1=
1&
#350000
b11 !
12
13
1(
#360000
b111 !
b101 !
b100 !
02
04
19
1@
0<
0=
18
03
0(
1'
0&
0@
1B
1=
1&
1%
0B
0%
#370000
b101 !
12
13
1(
#380000
b111 !
b110 !
02
14
1<
08
03
0(
0'
1@
0=
0&
1B
1%
#390000
b111 !
12
13
1(
#400000
b1111 !
b1011 !
b1001 !
b1000 !
02
04
09
1?
1C
0@
0<
0B
1=
18
03
0(
1'
1&
0%
0C
1E
1B
0=
0&
1%
1$
0E
0$
#410000
b1001 !
12
13
1(
#420000
b1011 !
b1010 !
02
14
1<
08
03
0(
0'
1=
1&
#430000
b1011 !
12
13
1(
#440000
b1111 !
b1101 !
b1100 !
02
04
19
1@
0<
0=
18
03
0(
1'
0&
1C
0@
0B
1=
1&
0%
0C
1E
1B
1%
1$
0E
0$
#450000
b1101 !
12
13
1(
#460000
b1111 !
b1110 !
02
14
1<
08
03
0(
0'
1@
0=
0&
1C
0B
0%
1E
1$
#470000
b1111 !
12
13
1(
#480000
b11 "
b111 !
b11 !
b1 !
b0 !
02
04
09
0?
11
0C
0@
0<
1B
1=
18
1'
1&
1%
0E
0B
0=
0&
0%
0$
#490000
b1 !
12
17
03
0(
1;
08
0'
1=
1&
#500000
b11 !
b10 !
02
14
0;
1<
07
18
13
1(
1'
08
0'
#510000
b11 !
12
17
03
0(
18
1'
#520000
b111 !
b101 !
b100 !
02
04
19
1@
1;
0<
07
0=
08
13
1(
0'
0&
0;
1B
18
1'
1%
0@
1=
1&
0B
0%
#530000
b101 !
12
17
03
0(
1;
08
0'
1@
0=
0&
1B
1%
#540000
b111 !
b110 !
02
14
0;
1<
07
18
13
1(
1'
08
0'
#550000
b111 !
12
17
03
0(
18
1'
#560000
b1111 !
b1011 !
b1001 !
b1000 !
02
04
09
1?
1C
0@
1;
0<
07
0B
1=
08
13
1(
0'
1&
0%
0C
0;
1E
1B
18
1'
1%
1$
0E
0=
0&
0$
#570000
b1001 !
12
17
03
0(
1;
08
0'
1=
1&
#580000
b1011 !
b1010 !
02
14
0;
1<
07
18
13
1(
1'
08
0'
#590000
b1011 !
12
17
03
0(
18
1'
#600000
b1111 !
b1101 !
b1100 !
02
04
19
1@
1;
0<
07
0=
08
13
1(
0'
0&
1C
0;
0B
18
1'
0%
0@
1E
1=
1&
1$
0C
1B
1%
0E
0$
#610000
b1101 !
12
17
03
0(
1;
08
0'
1@
0=
0&
1C
0B
0%
1E
1$
#620000
b1111 !
b1110 !
02
14
0;
1<
07
18
13
1(
1'
08
0'
#630000
b1111 !
12
17
03
0(
18
1'
#640000
b111 "
b101 "
b100 "
b111 !
b11 !
b1 !
b0 !
02
04
09
0?
01
05
1:
0<
07
0C
1B
1%
0@
1=
08
0E
0$
0'
1&
0B
0%
#650000
b1 !
12
13
1(
#660000
b11 !
b10 !
02
14
18
03
0(
1'
#670000
b11 !
12
13
1(
#680000
b111 !
b101 !
b100 !
02
04
19
1A
0=
08
03
0(
0'
0&
1B
1%
#690000
b101 !
12
13
1(
#700000
b111 !
b110 !
02
14
18
03
0(
1'
#710000
b111 !
12
13
1(
#720000
b1111 !
b1011 !
b1001 !
b1000 !
02
04
09
1?
1C
0A
0B
1=
08
03
0(
0'
1&
0%
0C
1E
1B
1%
1$
0E
0$
#730000
b1001 !
12
13
1(
#740000
b1011 !
b1010 !
02
14
18
03
0(
1'
#750000
b1011 !
12
13
1(
#760000
b1111 !
b1101 !
b1100 !
02
04
19
1A
0=
08
03
0(
0'
0&
1C
0B
0%
1E
1$
#770000
b1101 !
12
13
1(
#780000
b1111 !
b1110 !
02
14
18
03
0(
1'
#790000
b1111 !
12
13
1(
#800000
b101 "
b111 !
b11 !
b1 !
b0 !
02
04
09
0?
11
0C
0A
1B
1=
08
0'
1&
1%
0E
0B
0%
0$
#810000
b1 !
12
17
03
0(
18
1'
#820000
b11 !
b10 !
02
14
1;
07
08
13
1(
0'
1@
0;
0=
18
1'
0&
0@
1B
1=
1&
1%
0B
0%
#830000
b11 !
12
17
03
0(
1;
08
0'
1@
0=
0&
1B
1%
#840000
b111 !
b101 !
b100 !
02
04
19
0@
1A
0;
07
1=
18
13
1(
1'
1&
0=
08
0'
0&
#850000
b101 !
12
17
03
0(
18
1'
#860000
b111 !
b110 !
02
14
1;
07
08
13
1(
0'
0;
1=
18
1'
1&
0=
0&
#870000
b111 !
12
17
03
0(
1;
08
0'
1=
1&
#880000
b1111 !
b1011 !
b1001 !
b1000 !
02
04
09
1?
1C
1@
0A
0;
07
0B
0=
18
13
1(
1'
0&
0%
0@
1E
1=
08
0'
1&
1$
0C
1B
1%
0E
0$
#890000
b1001 !
12
17
03
0(
18
1'
#900000
b1011 !
b1010 !
02
14
1;
07
08
13
1(
0'
1@
0;
0=
18
1'
0&
1C
0@
0B
1=
1&
0%
0C
1E
1B
1%
1$
0E
0$
#910000
b1011 !
12
17
03
0(
1;
08
0'
1@
0=
0&
1C
0B
0%
1E
1$
#920000
b1111 !
b1101 !
b1100 !
02
04
19
0@
1A
0;
07
1=
18
13
1(
1'
1&
0=
08
0'
0&
#930000
b1101 !
12
17
03
0(
18
1'
#940000
b1111 !
b1110 !
02
14
1;
07
08
13
1(
0'
0;
1=
18
1'
1&
0=
0&
#950000
b1111 !
12
17
03
0(
1;
08
0'
1=
1&
#960000
b111 "
b110 "
b111 !
b11 !
b1 !
b0 !
02
04
09
0?
01
15
07
0C
1@
0A
1B
0=
0&
1%
0;
18
0E
0$
1'
0@
1=
1&
0B
0%
#970000
b1 !
12
13
1(
#980000
b11 !
b10 !
02
14
1<
08
03
0(
0'
1@
0=
0&
1B
1%
#990000
b11 !
12
13
1(
#1000000
b111 !
b101 !
b100 !
02
04
19
0@
1A
0<
1=
18
03
0(
1'
1&
0=
0&
#1010000
b101 !
12
13
1(
#1020000
b111 !
b110 !
02
14
1<
08
03
0(
0'
1=
1&
#1030000
b111 !
12
13
1(
#1040000
b1111 !
b1011 !
b1001 !
b1000 !
02
04
09
1?
1C
1@
0A
0<
0B
0=
18
03
0(
1'
0&
0%
0@
1E
1=
1&
1$
0C
1B
1%
0E
0$
#1050000
b1001 !
12
13
1(
#1060000
b1011 !
b1010 !
02
14
1<
08
03
0(
0'
1@
0=
0&
1C
0B
0%
1E
1$
#1070000
b1011 !
12
13
1(
#1080000
b1111 !
b1101 !
b1100 !
02
04
19
0@
1A
0<
1=
18
03
0(
1'
1&
0=
0&
#1090000
b1101 !
12
13
1(
#1100000
b1111 !
b1110 !
02
14
1<
08
03
0(
0'
1=
1&
#1110000
b1111 !
12
13
1(
#1120000
b111 "
b111 !
b11 !
b1 !
b0 !
02
04
09
0?
11
0C
1@
0A
0<
1B
0=
18
1'
0&
1%
0@
0E
1=
1&
0$
0B
0%
#1130000
b1 !
12
17
03
0(
1;
08
0'
1@
0=
0&
1B
1%
#1140000
b11 !
b10 !
02
14
0;
1<
07
18
13
1(
1'
08
0'
#1150000
b11 !
12
17
03
0(
18
1'
#1160000
b111 !
b101 !
b100 !
02
04
19
0@
1A
1;
0<
07
1=
08
13
1(
0'
1&
0;
18
1'
0=
0&
#1170000
b101 !
12
17
03
0(
1;
08
0'
1=
1&
#1180000
b111 !
b110 !
02
14
0;
1<
07
18
13
1(
1'
08
0'
#1190000
b111 !
12
17
03
0(
18
1'
#1200000
b1111 !
b1011 !
b1001 !
b1000 !
02
04
09
1?
1C
1@
0A
1;
0<
07
0B
0=
08
13
1(
0'
0&
0%
0;
1E
18
1'
1$
0@
1=
1&
0C
1B
1%
0E
0$
#1210000
b1001 !
12
17
03
0(
1;
08
0'
1@
0=
0&
1C
0B
0%
1E
1$
#1220000
b1011 !
b1010 !
02
14
0;
1<
07
18
13
1(
1'
08
0'
#1230000
b1011 !
12
17
03
0(
18
1'
#1240000
b1111 !
b1101 !
b1100 !
02
04
19
0@
1A
1;
0<
07
1=
08
13
1(
0'
1&
0;
18
1'
0=
0&
#1250000
b1101 !
12
17
03
0(
1;
08
0'
1=
1&
#1260000
b1111 !
b1110 !
02
14
0;
1<
07
18
13
1(
1'
08
0'
#1270000
b1111 !
12
17
03
0(
18
1'
#1280000
b1111 "
b1011 "
b1001 "
b1000 "
b111 !
b11 !
b1 !
b0 !
02
04
09
0?
01
05
0:
1>
0A
0<
07
0C
1B
0=
08
0'
0&
1%
0E
0$
#1290000
b1 !
12
13
1(
#1300000
b11 !
b10 !
02
14
18
03
0(
1'
#1310000
b11 !
12
13
1(
#1320000
b111 !
b101 !
b100 !
02
04
19
1=
08
03
0(
0'
1&
#1330000
b101 !
12
13
1(
#1340000
b111 !
b110 !
02
14
18
03
0(
1'
#1350000
b111 !
12
13
1(
#1360000
b1111 !
b1011 !
b1001 !
b1000 !
02
04
09
1?
1D
0B
0=
08
03
0(
0'
0&
0%
1E
1$
#1370000
b1001 !
12
13
1(
#1380000
b1011 !
b1010 !
02
14
18
03
0(
1'
#1390000
b1011 !
12
13
1(
#1400000
b1111 !
b1101 !
b1100 !
02
04
19
1=
08
03
0(
0'
1&
#1410000
b1101 !
12
13
1(
#1420000
b1111 !
b1110 !
02
14
18
03
0(
1'
#1430000
b1111 !
12
13
1(
#1440000
b1001 "
b111 !
b11 !
b1 !
b0 !
02
04
09
0?
11
0D
1B
0=
08
0'
0&
1%
0E
0$
#1450000
b1 !
12
17
03
0(
18
1'
#1460000
b11 !
b10 !
02
14
1;
07
08
13
1(
0'
0;
1=
18
1'
1&
0=
0&
#1470000
b11 !
12
17
03
0(
1;
08
0'
1=
1&
#1480000
b111 !
b101 !
b100 !
02
04
19
1@
0;
07
0=
18
13
1(
1'
0&
1C
0@
0B
1=
08
0'
1&
0%
0C
1E
1B
1%
1$
0E
0$
#1490000
b101 !
12
17
03
0(
18
1'
#1500000
b111 !
b110 !
02
14
1;
07
08
13
1(
0'
1@
0;
0=
18
1'
0&
1C
0@
0B
1=
1&
0%
0C
1E
1B
1%
1$
0E
0$
#1510000
b111 !
12
17
03
0(
1;
08
0'
1@
0=
0&
1C
0B
0%
1E
1$
#1520000
b1111 !
b1011 !
b1001 !
b1000 !
02
04
09
1?
0C
1D
0@
0;
07
1B
1=
18
13
1(
1'
1&
1%
0B
0=
08
0'
0&
0%
#1530000
b1001 !
12
17
03
0(
18
1'
#1540000
b1011 !
b1010 !
02
14
1;
07
08
13
1(
0'
0;
1=
18
1'
1&
0=
0&
#1550000
b1011 !
12
17
03
0(
1;
08
0'
1=
1&
#1560000
b1111 !
b1101 !
b1100 !
02
04
19
1@
0;
07
0=
18
13
1(
1'
0&
0@
1B
1=
08
0'
1&
1%
0B
0%
#1570000
b1101 !
12
17
03
0(
18
1'
#1580000
b1111 !
b1110 !
02
14
1;
07
08
13
1(
0'
1@
0;
0=
18
1'
0&
0@
1B
1=
1&
1%
0B
0%
#1590000
b1111 !
12
17
03
0(
1;
08
0'
1@
0=
0&
1B
1%
#1600000
b1011 "
b1010 "
b111 !
b11 !
b1 !
b0 !
02
04
09
0?
01
15
07
1C
0D
0@
0B
1=
1&
0%
0;
0C
18
1B
1%
1'
0=
0E
0$
0&
#1610000
b1 !
12
13
1(
#1620000
b11 !
b10 !
02
14
1<
08
03
0(
0'
1=
1&
#1630000
b11 !
12
13
1(
#1640000
b111 !
b101 !
b100 !
02
04
19
1@
0<
0=
18
03
0(
1'
0&
1C
0@
0B
1=
1&
0%
0C
1E
1B
1%
1$
0E
0$
#1650000
b101 !
12
13
1(
#1660000
b111 !
b110 !
02
14
1<
08
03
0(
0'
1@
0=
0&
1C
0B
0%
1E
1$
#1670000
b111 !
12
13
1(
#1680000
b1111 !
b1011 !
b1001 !
b1000 !
02
04
09
1?
0C
1D
0@
0<
1B
1=
18
03
0(
1'
1&
1%
0B
0=
0&
0%
#1690000
b1001 !
12
13
1(
#1700000
b1011 !
b1010 !
02
14
1<
08
03
0(
0'
1=
1&
#1710000
b1011 !
12
13
1(
#1720000
b1111 !
b1101 !
b1100 !
02
04
19
1@
0<
0=
18
03
0(
1'
0&
0@
1B
1=
1&
1%
0B
0%
#1730000
b1101 !
12
13
1(
#1740000
b1111 !
b1110 !
02
14
1<
08
03
0(
0'
1@
0=
0&
1B
1%
#1750000
b1111 !
12
13
1(
#1760000
b1011 "
b111 !
b11 !
b1 !
b0 !
02
04
09
0?
11
1C
0D
0@
0<
0B
1=
18
1'
1&
0%
0C
1B
0=
0&
1%
0E
0$
#1770000
b1 !
12
17
03
0(
1;
08
0'
1=
1&
#1780000
b11 !
b10 !
02
14
0;
1<
07
18
13
1(
1'
08
0'
#1790000
b11 !
12
17
03
0(
18
1'
#1800000
b111 !
b101 !
b100 !
02
04
19
1@
1;
0<
07
0=
08
13
1(
0'
0&
1C
0;
0B
18
1'
0%
0@
1E
1=
1&
1$
0C
1B
1%
0E
0$
#1810000
b101 !
12
17
03
0(
1;
08
0'
1@
0=
0&
1C
0B
0%
1E
1$
#1820000
b111 !
b110 !
02
14
0;
1<
07
18
13
1(
1'
08
0'
#1830000
b111 !
12
17
03
0(
18
1'
#1840000
b1111 !
b1011 !
b1001 !
b1000 !
02
04
09
1?
0C
1D
0@
1;
0<
07
1B
1=
08
13
1(
0'
1&
1%
0;
0B
18
1'
0%
0=
0&
#1850000
b1001 !
12
17
03
0(
1;
08
0'
1=
1&
#1860000
b1011 !
b1010 !
02
14
0;
1<
07
18
13
1(
1'
08
0'
#1870000
b1011 !
12
17
03
0(
18
1'
#1880000
b1111 !
b1101 !
b1100 !
02
04
19
1@
1;
0<
07
0=
08
13
1(
0'
0&
0;
1B
18
1'
1%
0@
1=
1&
0B
0%
#1890000
b1101 !
12
17
03
0(
1;
08
0'
1@
0=
0&
1B
1%
#1900000
b1111 !
b1110 !
02
14
0;
1<
07
18
13
1(
1'
08
0'
#1910000
b1111 !
12
17
03
0(
18
1'
#1920000
b1111 "
b1101 "
b1100 "
b111 !
b11 !
b1 !
b0 !
02
04
09
0?
01
05
1:
0<
07
1C
0D
0B
0%
0@
1=
08
0'
1&
0C
1B
1%
0E
0$
#1930000
b1 !
12
13
1(
#1940000
b11 !
b10 !
02
14
18
03
0(
1'
#1950000
b11 !
12
13
1(
#1960000
b111 !
b101 !
b100 !
02
04
19
1A
0=
08
03
0(
0'
0&
1C
0B
0%
1E
1$
#1970000
b101 !
12
13
1(
#1980000
b111 !
b110 !
02
14
18
03
0(
1'
#1990000
b111 !
12
13
1(
#2000000
b1111 !
b1011 !
b1001 !
b1000 !
02
04
09
1?
0C
1D
0A
1B
1=
08
03
0(
0'
1&
1%
0B
0%
#2010000
b1001 !
12
13
1(
#2020000
b1011 !
b1010 !
02
14
18
03
0(
1'
#2030000
b1011 !
12
13
1(
#2040000
b1111 !
b1101 !
b1100 !
02
04
19
1A
0=
08
03
0(
0'
0&
1B
1%
#2050000
b1101 !
12
13
1(
#2060000
b1111 !
b1110 !
02
14
18
03
0(
1'
#2070000
b1111 !
12
13
1(
#2080000
b1101 "
b111 !
b11 !
b1 !
b0 !
02
04
09
0?
11
1C
0D
0A
0B
1=
08
0'
1&
0%
0C
1B
1%
0E
0$
#2090000
b1 !
12
17
03
0(
18
1'
#2100000
b11 !
b10 !
02
14
1;
07
08
13
1(
0'
1@
0;
0=
18
1'
0&
1C
0@
0B
1=
1&
0%
0C
1E
1B
1%
1$
0E
0$
#2110000
b11 !
12
17
03
0(
1;
08
0'
1@
0=
0&
1C
0B
0%
1E
1$
#2120000
b111 !
b101 !
b100 !
02
04
19
0@
1A
0;
07
1=
18
13
1(
1'
1&
0=
08
0'
0&
#2130000
b101 !
12
17
03
0(
18
1'
#2140000
b111 !
b110 !
02
14
1;
07
08
13
1(
0'
0;
1=
18
1'
1&
0=
0&
#2150000
b111 !
12
17
03
0(
1;
08
0'
1=
1&
#2160000
b1111 !
b1011 !
b1001 !
b1000 !
02
04
09
1?
0C
1D
1@
0A
0;
07
1B
0=
18
13
1(
1'
0&
1%
0@
1=
08
0'
1&
0B
0%
#2170000
b1001 !
12
17
03
0(
18
1'
#2180000
b1011 !
b1010 !
02
14
1;
07
08
13
1(
0'
1@
0;
0=
18
1'
0&
0@
1B
1=
1&
1%
0B
0%
#2190000
b1011 !
12
17
03
0(
1;
08
0'
1@
0=
0&
1B
1%
#2200000
b1111 !
b1101 !
b1100 !
02
04
19
0@
1A
0;
07
1=
18
13
1(
1'
1&
0=
08
0'
0&
#2210000
b1101 !
12
17
03
0(
18
1'
#2220000
b1111 !
b1110 !
02
14
1;
07
08
13
1(
0'
0;
1=
18
1'
1&
0=
0&
#2230000
b1111 !
12
17
03
0(
1;
08
0'
1=
1&
#2240000
b1111 "
b1110 "
b111 !
b11 !
b1 !
b0 !
02
04
09
0?
01
15
07
1C
0D
1@
0A
0B
0=
0&
0%
0;
18
1'
0@
1=
1&
0C
1B
1%
0E
0$
#2250000
b1 !
12
13
1(
#2260000
b11 !
b10 !
02
14
1<
08
03
0(
0'
1@
0=
0&
1C
0B
0%
1E
1$
#2270000
b11 !
12
13
1(
#2280000
b111 !
b101 !
b100 !
02
04
19
0@
1A
0<
1=
18
03
0(
1'
1&
0=
0&
#2290000
b101 !
12
13
1(
#2300000
b111 !
b110 !
02
14
1<
08
03
0(
0'
1=
1&
#2310000
b111 !
12
13
1(
#2320000
b1111 !
b1011 !
b1001 !
b1000 !
02
04
09
1?
0C
1D
1@
0A
0<
1B
0=
18
03
0(
1'
0&
1%
0@
1=
1&
0B
0%
#2330000
b1001 !
12
13
1(
#2340000
b1011 !
b1010 !
02
14
1<
08
03
0(
0'
1@
0=
0&
1B
1%
#2350000
b1011 !
12
13
1(
#2360000
b1111 !
b1101 !
b1100 !
02
04
19
0@
1A
0<
1=
18
03
0(
1'
1&
0=
0&
#2370000
b1101 !
12
13
1(
#2380000
b1111 !
b1110 !
02
14
1<
08
03
0(
0'
1=
1&
#2390000
b1111 !
12
13
1(
#2400000
b1111 "
b111 !
b11 !
b1 !
b0 !
02
04
09
0?
11
1C
0D
1@
0A
0<
0B
0=
18
1'
0&
0%
0@
1=
1&
0C
1B
1%
0E
0$
#2410000
b1 !
12
17
03
0(
1;
08
0'
1@
0=
0&
1C
0B
0%
1E
1$
#2420000
b11 !
b10 !
02
14
0;
1<
07
18
13
1(
1'
08
0'
#2430000
b11 !
12
17
03
0(
18
1'
#2440000
b111 !
b101 !
b100 !
02
04
19
0@
1A
1;
0<
07
1=
08
13
1(
0'
1&
0;
18
1'
0=
0&
#2450000
b101 !
12
17
03
0(
1;
08
0'
1=
1&
#2460000
b111 !
b110 !
02
14
0;
1<
07
18
13
1(
1'
08
0'
#2470000
b111 !
12
17
03
0(
18
1'
#2480000
b1111 !
b1011 !
b1001 !
b1000 !
02
04
09
1?
0C
1D
1@
0A
1;
0<
07
1B
0=
08
13
1(
0'
0&
1%
0;
18
1'
0@
1=
1&
0B
0%
#2490000
b1001 !
12
17
03
0(
1;
08
0'
1@
0=
0&
1B
1%
#2500000
b1011 !
b1010 !
02
14
0;
1<
07
18
13
1(
1'
08
0'
#2510000
b1011 !
12
17
03
0(
18
1'
#2520000
b1111 !
b1101 !
b1100 !
02
04
19
0@
1A
1;
0<
07
1=
08
13
1(
0'
1&
0;
18
1'
0=
0&
#2530000
b1101 !
12
17
03
0(
1;
08
0'
1=
1&
#2540000
b1111 !
b1110 !
02
14
0;
1<
07
18
13
1(
1'
08
0'
#2550000
b1111 !
12
17
03
0(
18
1'
#2560000
1#
b111 "
b11 "
b1 "
b0 "
b111 !
b11 !
b1 !
b0 !
10
02
04
09
0?
01
05
0:
0>
0D
0A
0<
07
13
1(
0E
0B
0=
08
0'
0&
0%
0$
#2570000
b1 !
12
17
03
0(
18
1'
#2580000
b11 !
b10 !
02
14
1;
07
08
13
1(
0'
0;
1=
18
1'
1&
0=
0&
#2590000
b11 !
12
17
03
0(
1;
08
0'
1=
1&
#2600000
b111 !
b101 !
b100 !
02
04
19
1@
0;
07
0=
18
13
1(
1'
0&
0@
1B
1=
08
0'
1&
1%
0B
0%
#2610000
b101 !
12
17
03
0(
18
1'
#2620000
b111 !
b110 !
02
14
1;
07
08
13
1(
0'
1@
0;
0=
18
1'
0&
0@
1B
1=
1&
1%
0B
0%
#2630000
b111 !
12
17
03
0(
1;
08
0'
1@
0=
0&
1B
1%
#2640000
b1111 !
b1011 !
b1001 !
b1000 !
02
04
09
1?
1C
0@
0;
07
0B
1=
18
13
1(
1'
1&
0%
0C
1E
1B
0=
08
0'
0&
1%
1$
0E
0$
#2650000
b1001 !
12
17
03
0(
18
1'
#2660000
b1011 !
b1010 !
02
14
1;
07
08
13
1(
0'
0;
1=
18
1'
1&
0=
0&
#2670000
b1011 !
12
17
03
0(
1;
08
0'
1=
1&
#2680000
b1111 !
b1101 !
b1100 !
02
04
19
1@
0;
07
0=
18
13
1(
1'
0&
1C
0@
0B
1=
08
0'
1&
0%
0C
1E
1B
1%
1$
0E
0$
#2690000
b1101 !
12
17
03
0(
18
1'
#2700000
b1111 !
b1110 !
02
14
1;
07
08
13
1(
0'
1@
0;
0=
18
1'
0&
1C
0@
0B
1=
1&
0%
0C
1E
1B
1%
1$
0E
0$
#2710000
b1111 !
12
17
03
0(
1;
08
0'
1@
0=
0&
1C
0B
0%
1E
1$
#2720000
b1 "
b111 !
b11 !
b1 !
b0 !
02
04
09
0?
11
0C
0@
0;
1B
1=
18
1'
1&
1%
0E
0B
0=
0&
0%
0$
#2730000
b1 !
12
13
1(
#2740000
b11 !
b10 !
02
14
1;
08
03
0(
0'
1=
1&
#2750000
b11 !
12
13
1(
#2760000
b111 !
b101 !
b100 !
02
04
19
1@
0;
0=
18
03
0(
1'
0&
0@
1B
1=
1&
1%
0B
0%
#2770000
b101 !
12
13
1(
#2780000
b111 !
b110 !
02
14
1;
08
03
0(
0'
1@
0=
0&
1B
1%
#2790000
b111 !
12
13
1(
#2800000
b1111 !
b1011 !
b1001 !
b1000 !
02
04
09
1?
1C
0@
0;
0B
1=
18
03
0(
1'
1&
0%
0C
1E
1B
0=
0&
1%
1$
0E
0$
#2810000
b1001 !
12
13
1(
#2820000
b1011 !
b1010 !
02
14
1;
08
03
0(
0'
1=
1&
#2830000
b1011 !
12
13
1(
#2840000
b1111 !
b1101 !
b1100 !
02
04
19
1@
0;
0=
18
03
0(
1'
0&
1C
0@
0B
1=
1&
0%
0C
1E
1B
1%
1$
0E
0$
#2850000
b1101 !
12
13
1(
#2860000
b1111 !
b1110 !
02
14
1;
08
03
0(
0'
1@
0=
0&
1C
0B
0%
1E
1$
#2870000
b1111 !
12
13
1(
#2880000
b11 "
b10 "
b111 !
b11 !
b1 !
b0 !
02
04
09
0?
01
15
07
0C
0@
1B
1=
1&
1%
0;
18
0E
0B
0%
0$
1'
0=
0&
#2890000
b1 !
12
17
03
0(
1;
08
0'
1=
1&
#2900000
b11 !
b10 !
02
14
0;
1<
07
18
13
1(
1'
08
0'
#2910000
b11 !
12
17
03
0(
18
1'
#2920000
b111 !
b101 !
b100 !
02
04
19
1@
1;
0<
07
0=
08
13
1(
0'
0&
0;
1B
18
1'
1%
0@
1=
1&
0B
0%
#2930000
b101 !
12
17
03
0(
1;
08
0'
1@
0=
0&
1B
1%
#2940000
b111 !
b110 !
02
14
0;
1<
07
18
13
1(
1'
08
0'
#2950000
b111 !
12
17
03
0(
18
1'
#2960000
b1111 !
b1011 !
b1001 !
b1000 !
02
04
09
1?
1C
0@
1;
0<
07
0B
1=
08
13
1(
0'
1&
0%
0C
0;
1E
1B
18
1'
1%
1$
0E
0=
0&
0$
#2970000
b1001 !
12
17
03
0(
1;
08
0'
1=
1&
#2980000
b1011 !
b1010 !
02
14
0;
1<
07
18
13
1(
1'
08
0'
#2990000
b1011 !
12
17
03
0(
18
1'
#3000000
b1111 !
b1101 !
b1100 !
02
04
19
1@
1;
0<
07
0=
08
13
1(
0'
0&
1C
0;
0B
18
1'
0%
0@
1E
1=
1&
1$
0C
1B
1%
0E
0$
#3010000
b1101 !
12
17
03
0(
1;
08
0'
1@
0=
0&
1C
0B
0%
1E
1$
#3020000
b1111 !
b1110 !
02
14
0;
1<
07
18
13
1(
1'
08
0'
#3030000
b1111 !
12
17
03
0(
18
1'
#3040000
b11 "
b111 !
b11 !
b1 !
b0 !
02
04
09
0?
11
0C
0@
1;
0<
1B
1=
08
0'
1&
1%
0E
0B
0%
0$
#3050000
b1 !
12
13
1(
#3060000
b11 !
b10 !
02
14
0;
1<
18
03
0(
1'
#3070000
b11 !
12
13
1(
#3080000
b111 !
b101 !
b100 !
02
04
19
1@
1;
0<
0=
08
03
0(
0'
0&
1B
1%
#3090000
b101 !
12
13
1(
#3100000
b111 !
b110 !
02
14
0;
1<
18
03
0(
1'
#3110000
b111 !
12
13
1(
#3120000
b1111 !
b1011 !
b1001 !
b1000 !
02
04
09
1?
1C
0@
1;
0<
0B
1=
08
03
0(
0'
1&
0%
0C
1E
1B
1%
1$
0E
0$
#3130000
b1001 !
12
13
1(
#3140000
b1011 !
b1010 !
02
14
0;
1<
18
03
0(
1'
#3150000
b1011 !
12
13
1(
