four_bit_bcd_adder/simulation/qsim/four_bit_bcd_adder.msim.vcd
$comment
	File created using the following command:
		vcd file four_bit_bcd_adder.msim.vcd -direction
$end
$date
	Sun Sep 22 15:35:37 2019
$end
$version
	ModelSim Version 10.5b
$end
$timescale
	1ps
$end

$scope module four_bit_bcd_adder_vlg_vec_tst $end
$var reg 4 ! A [3:0] $end
$var reg 4 " B [3:0] $end
$var reg 1 # Cin $end
$var wire 1 $ Cout $end
$var wire 1 % HexD [6] $end
$var wire 1 & HexD [5] $end
$var wire 1 ' HexD [4] $end
$var wire 1 ( HexD [3] $end
$var wire 1 ) HexD [2] $end
$var wire 1 * HexD [1] $end
$var wire 1 + HexD [0] $end
$var wire 1 , Sout [3] $end
$var wire 1 - Sout [2] $end
$var wire 1 . Sout [1] $end
$var wire 1 / Sout [0] $end
$var wire 1 0 Zout [3] $end
$var wire 1 1 Zout [2] $end
$var wire 1 2 Zout [1] $end
$var wire 1 3 Zout [0] $end

$scope module i1 $end
$var wire 1 4 gnd $end
$var wire 1 5 vcc $end
$var wire 1 6 unknown $end
$var tri1 1 7 devclrn $end
$var tri1 1 8 devpor $end
$var tri1 1 9 devoe $end
$var wire 1 : ~QUARTUS_CREATED_GND~I_combout $end
$var wire 1 ; A[0]~input_o $end
$var wire 1 < B[0]~input_o $end
$var wire 1 = Cin~input_o $end
$var wire 1 > A[1]~input_o $end
$var wire 1 ? B[1]~input_o $end
$var wire 1 @ cl_four_bit_adder_0|S[2]~0_combout $end
$var wire 1 A B[2]~input_o $end
$var wire 1 B A[2]~input_o $end
$var wire 1 C cl_four_bit_adder_0|S[2]~1_combout $end
$var wire 1 D A[3]~input_o $end
$var wire 1 E B[3]~input_o $end
$var wire 1 F cl_four_bit_adder_0|S[3]~2_combout $end
$var wire 1 G cl_four_bit_adder_1|half_adder_1|S~combout $end
$var wire 1 H cl_four_bit_adder_1|S[3]~0_combout $end
$var wire 1 I Cout~0_combout $end
$var wire 1 J seven_seg_0|hexd[0]~0_combout $end
$var wire 1 K seven_seg_0|hexd[1]~1_combout $end
$var wire 1 L seven_seg_0|hexd[2]~2_combout $end
$var wire 1 M seven_seg_0|hexd[4]~3_combout $end
$var wire 1 N seven_seg_0|hexd[5]~4_combout $end
$var wire 1 O seven_seg_0|hexd[6]~5_combout $end
$var wire 1 P seven_seg_0|hexd [6] $end
$var wire 1 Q seven_seg_0|hexd [5] $end
$var wire 1 R seven_seg_0|hexd [4] $end
$var wire 1 S seven_seg_0|hexd [3] $end
$var wire 1 T seven_seg_0|hexd [2] $end
$var wire 1 U seven_seg_0|hexd [1] $end
$var wire 1 V seven_seg_0|hexd [0] $end
$var wire 1 W cl_four_bit_adder_1|S [3] $end
$var wire 1 X cl_four_bit_adder_1|S [2] $end
$var wire 1 Y cl_four_bit_adder_1|S [1] $end
$var wire 1 Z cl_four_bit_adder_1|S [0] $end
$var wire 1 [ cl_four_bit_adder_0|S [3] $end
$var wire 1 \ cl_four_bit_adder_0|S [2] $end
$var wire 1 ] cl_four_bit_adder_0|S [1] $end
$var wire 1 ^ cl_four_bit_adder_0|S [0] $end
$upscope $end
$upscope $end
$enddefinitions $end
#0
$dumpvars
b0 !
b0 "
0#
0$
0+
0*
0)
0(
0'
0&
1%
0/
0.
0-
0,
03
02
01
00
04
15
x6
17
18
19
0:
0;
0<
0=
0>
0?
0@
0A
0B
0C
0D
0E
0F
0G
0H
0I
0J
0K
0L
0M
0N
1O
zV
zU
zT
0S
zR
zQ
zP
zZ
zY
0X
zW
0^
0]
z\
z[
$end
#10000
b1 !
1;
1^
13
1/
1N
1M
1S
1J
1+
1(
1'
1&
#20000
b11 !
b10 !
0;
1>
1]
0^
03
0/
12
0N
0M
0S
0J
1G
1.
0+
0(
0'
0&
0O
1N
1L
1)
1&
0%
#30000
b11 !
1;
1^
13
1/
1M
0L
0)
1'
#40000
b111 !
b101 !
b100 !
0;
0>
1B
1X
1C
0]
0^
03
0/
02
11
1-
0N
0M
1K
0G
0.
1*
0'
0&
1M
1S
0K
1J
1+
0*
1(
1'
#50000
b101 !
1;
1^
13
1/
0S
1K
0J
0+
1*
0(
#60000
b111 !
b110 !
0;
1>
1]
0^
03
0/
12
1S
0K
1J
1G
1.
1+
0*
1(
0M
0S
1K
0J
0+
1*
0(
0'
#70000
b111 !
1;
1^
13
1/
1O
1N
1M
1S
0K
0*
1(
1'
1&
1%
#80000
b1111 !
b1011 !
b1001 !
b1000 !
0;
0>
0B
1D
1I
0X
0G
1F
0C
0]
0^
03
0/
02
01
10
0.
0-
1$
0N
0M
0S
0I
1H
1,
0$
0(
0'
0&
0O
0%
#90000
b1001 !
1;
1^
13
1/
1M
1'
#100000
b1011 !
b1010 !
0;
1>
1]
0^
03
0/
12
0M
1I
0H
0,
1$
0'
1O
1%
#110000
b1011 !
1;
1^
13
1/
1N
1M
1S
1J
1+
1(
1'
1&
#120000
b1111 !
b1101 !
b1100 !
0;
0>
1B
1X
1C
0]
0^
03
0/
02
11
1-
0O
0N
0X
1G
1.
0-
0&
0%
1N
0M
0S
1L
0J
0+
1)
0(
0'
1&
#130000
b1101 !
1;
1^
13
1/
1M
0L
0)
1'
#140000
b1111 !
b1110 !
0;
1>
1]
0^
03
0/
12
0M
1L
1X
0G
0.
1-
1)
0'
0N
1M
1S
0L
1J
1+
0)
1(
1'
0&
#150000
b1111 !
1;
1^
13
1/
0S
1K
0J
0+
1*
0(
#160000
b1 "
b111 !
b11 !
b1 !
b0 !
0;
0>
0B
0D
1<
0]
0I
0X
1G
0F
0C
01
00
1.
0-
0$
02
1N
0K
0G
0.
0*
1&
1O
1S
1J
1+
1(
1%
#170000
b1 !
1;
1]
0^
03
0/
12
0N
0M
0S
0J
1G
1.
0+
0(
0'
0&
0O
1N
1L
1)
1&
0%
#180000
b11 !
b10 !
0;
1>
1^
13
1/
1M
0L
0)
1'
#190000
b11 !
1;
1@
0]
0^
03
0/
02
1X
0G
1C
0M
1L
1)
0'
11
0.
1-
0N
1M
1S
0L
1J
1+
0)
1(
1'
0&
#200000
b111 !
b101 !
b100 !
0;
0>
1B
0@
1H
0X
1F
0C
1^
13
1/
01
10
0-
1,
0H
1X
0F
1C
0S
0J
0+
0(
11
00
1-
0,
1K
1*
#210000
b101 !
1;
1]
0^
03
0/
12
1S
0K
1J
1G
1.
1+
0*
1(
0M
0S
1K
0J
0+
1*
0(
0'
#220000
b111 !
b110 !
0;
1>
1^
13
1/
1O
1N
1M
1S
0K
0*
1(
1'
1&
1%
#230000
b111 !
1;
1@
0]
0^
03
0/
02
1H
0X
0G
1F
0C
0O
0N
0M
0S
1K
1*
0(
0'
0&
0%
01
10
0.
0-
1,
0K
0*
#240000
b1111 !
b1011 !
b1001 !
b1000 !
0;
0>
0B
1D
0@
1I
0H
1G
1C
1^
13
1/
11
1.
0,
1$
0I
1H
0G
0C
1N
1M
1'
1&
01
0.
1,
0$
0N
0&
#250000
b1001 !
1;
1]
0^
03
0/
12
0M
1I
0H
0,
1$
0'
1O
1%
#260000
b1011 !
b1010 !
0;
1>
1^
13
1/
1N
1M
1S
1J
1+
1(
1'
1&
#270000
b1011 !
1;
1@
0]
0^
03
0/
02
1G
1C
0N
0M
0S
0J
0+
0(
0'
0&
11
1.
0O
1N
1L
1)
1&
0%
#280000
b1111 !
b1101 !
b1100 !
0;
0>
1B
0@
1X
0F
0C
1^
13
1/
01
00
1-
0X
1F
1C
1O
1M
1S
0L
0)
1(
1'
1%
11
10
0-
0O
0S
0(
0%
#290000
b1101 !
1;
1]
0^
03
0/
12
0M
1L
1X
0G
0.
1-
1)
0'
0N
1M
1S
0L
1J
1+
0)
1(
1'
0&
#300000
b1111 !
b1110 !
0;
1>
1^
13
1/
0S
1K
0J
0+
1*
0(
#310000
b1111 !
1;
1@
0]
0^
03
0/
02
1G
0F
0C
1S
0K
1J
1+
0*
1(
01
00
1.
0M
0S
1K
0J
0+
1*
0(
0'
#320000
b11 "
b10 "
b111 !
b11 !
b1 !
b0 !
0;
0>
0B
0D
0<
1?
0@
1]
0I
0G
1C
11
0.
0$
12
0X
1G
0C
1M
1S
0K
1J
1+
0*
1(
1'
01
1.
0-
1N
0M
0S
1L
0J
0+
1)
0(
0'
1&
#330000
b1 !
1;
1^
13
1/
1M
0L
0)
1'
#340000
b11 !
b10 !
0;
1>
1@
0]
0^
03
0/
02
1X
0G
1C
0M
1L
1)
0'
11
0.
1-
0N
1M
1S
0L
1J
1+
0)
1(
1'
0&
#350000
b11 !
1;
1^
13
1/
0S
1K
0J
0+
1*
0(
#360000
b111 !
b101 !
b100 !
0;
0>
1B
0@
1H
0X
1F
0C
1]
0^
03
0/
12
01
10
0-
1,
0H
1X
1G
0F
1C
0M
0K
0*
0'
11
00
1.
1-
0,
1K
1*
#370000
b101 !
1;
1^
13
1/
1O
1N
1M
1S
0K
0*
1(
1'
1&
1%
#380000
b111 !
b110 !
0;
1>
1@
0]
0^
03
0/
02
1H
0X
0G
1F
0C
0O
0N
0M
0S
1K
1*
0(
0'
0&
0%
01
10
0.
0-
1,
0K
0*
#390000
b111 !
1;
1^
13
1/
1M
1'
#400000
b1111 !
b1011 !
b1001 !
b1000 !
0;
0>
0B
1D
0@
1I
0H
1G
1C
1]
0^
03
0/
12
11
1.
0,
1$
0G
0C
1N
0M
1L
1)
0'
1&
01
0.
1O
0N
0L
0)
0&
1%
#410000
b1001 !
1;
1^
13
1/
1N
1M
1S
1J
1+
1(
1'
1&
#420000
b1011 !
b1010 !
0;
1>
1@
0]
0^
03
0/
02
1G
1C
0N
0M
0S
0J
0+
0(
0'
0&
11
1.
0O
1N
1L
1)
1&
0%
#430000
b1011 !
1;
1^
13
1/
1M
0L
0)
1'
#440000
b1111 !
b1101 !
b1100 !
0;
0>
1B
0@
1X
0F
0C
1]
0^
03
0/
12
01
00
1-
0G
1F
1C
0N
0M
1K
1*
0'
0&
11
10
0.
1M
1S
0K
1J
1+
0*
1(
1'
#450000
b1101 !
1;
1^
13
1/
0S
1K
0J
0+
1*
0(
#460000
b1111 !
b1110 !
0;
1>
1@
0]
0^
03
0/
02
1G
0F
0C
1S
0K
1J
1+
0*
1(
01
00
1.
0M
0S
1K
0J
0+
1*
0(
0'
#470000
b1111 !
1;
1^
13
1/
1O
1N
1M
1S
0K
0*
1(
1'
1&
1%
#480000
b11 "
b111 !
b11 !
b1 !
b0 !
0;
0>
0B
0D
1<
0@
1]
0I
0G
1C
11
0.
0$
12
0X
1G
0C
0O
0N
0S
1K
1*
0(
0&
0%
01
1.
0-
1N
0K
0*
1&
#490000
b1 !
1;
1@
0]
0^
03
0/
02
1X
0G
1C
0M
1L
1)
0'
11
0.
1-
0N
1M
1S
0L
1J
1+
0)
1(
1'
0&
#500000
b11 !
b10 !
0;
1>
1^
13
1/
0S
1K
0J
0+
1*
0(
#510000
b11 !
1;
1]
0^
03
0/
12
1S
0K
1J
1G
1.
1+
0*
1(
0M
0S
1K
0J
0+
1*
0(
0'
#520000
b111 !
b101 !
b100 !
0;
0>
1B
0@
1I
0X
0G
1F
0C
1^
13
1/
01
10
0.
0-
1$
0I
1X
1G
0F
1C
1O
1N
1M
1S
0K
1J
1+
0*
1(
1'
1&
1%
11
00
1.
1-
0$
0J
0+
#530000
b101 !
1;
1@
0]
0^
03
0/
02
1H
0X
0G
1F
0C
0O
0N
0M
0S
1K
1*
0(
0'
0&
0%
01
10
0.
0-
1,
0K
0*
#540000
b111 !
b110 !
0;
1>
1^
13
1/
1M
1'
#550000
b111 !
1;
1]
0^
03
0/
12
0M
1I
0H
0,
1$
0'
1O
1%
#560000
b1111 !
b1011 !
b1001 !
b1000 !
0;
0>
0B
1D
0@
1X
1C
1^
13
1/
11
1-
0X
0C
0O
1M
1K
1*
1'
0%
01
0-
1O
1N
1S
0K
1J
1+
0*
1(
1&
1%
#570000
b1001 !
1;
1@
0]
0^
03
0/
02
1G
1C
0N
0M
0S
0J
0+
0(
0'
0&
11
1.
0O
1N
1L
1)
1&
0%
#580000
b1011 !
b1010 !
0;
1>
1^
13
1/
1M
0L
0)
1'
#590000
b1011 !
1;
1]
0^
03
0/
12
0M
1L
1X
0G
0.
1-
1)
0'
0N
1M
1S
0L
1J
1+
0)
1(
1'
0&
#600000
b1111 !
b1101 !
b1100 !
0;
0>
1B
0@
1H
0X
0F
0C
1^
13
1/
01
00
0-
1,
0H
1X
1F
1C
0S
0J
0+
0(
11
10
1-
0,
1K
1*
#610000
b1101 !
1;
1@
0]
0^
03
0/
02
1G
0F
0C
1S
0K
1J
1+
0*
1(
01
00
1.
0M
0S
1K
0J
0+
1*
0(
0'
#620000
b1111 !
b1110 !
0;
1>
1^
13
1/
1O
1N
1M
1S
0K
0*
1(
1'
1&
1%
#630000
b1111 !
1;
1]
0^
03
0/
12
0O
0N
0M
0S
1K
1H
0X
0G
0.
0-
1,
1*
0(
0'
0&
0%
0K
0*
#640000
b111 "
b101 "
b100 "
b111 !
b11 !
b1 !
b0 !
0;
0>
0B
0D
0<
0?
1A
0@
0H
1F
0]
02
10
0,
0I
1X
0F
1C
1O
1%
11
00
1-
0$
0O
1M
1S
1J
1+
1(
1'
0%
#650000
b1 !
1;
1^
13
1/
0S
1K
0J
0+
1*
0(
#660000
b11 !
b10 !
0;
1>
1]
0^
03
0/
12
1S
0K
1J
1G
1.
1+
0*
1(
0M
0S
1K
0J
0+
1*
0(
0'
#670000
b11 !
1;
1^
13
1/
1O
1N
1M
1S
0K
0*
1(
1'
1&
1%
#680000
b111 !
b101 !
b100 !
0;
0>
1B
1I
0X
0G
1F
0C
0]
0^
03
0/
02
01
10
0.
0-
1$
0N
0M
0S
0I
1H
1,
0$
0(
0'
0&
0O
0%
#690000
b101 !
1;
1^
13
1/
1M
1'
#700000
b111 !
b110 !
0;
1>
1]
0^
03
0/
12
0M
1I
0H
0,
1$
0'
1O
1%
#710000
b111 !
1;
1^
13
1/
1N
1M
1S
1J
1+
1(
1'
1&
#720000
b1111 !
b1011 !
b1001 !
b1000 !
0;
0>
0B
1D
1X
1C
0]
0^
03
0/
02
11
1-
0O
0N
0X
1G
1.
0-
0&
0%
1N
0M
0S
1L
0J
0+
1)
0(
0'
1&
#730000
b1001 !
1;
1^
13
1/
1M
0L
0)
1'
#740000
b1011 !
b1010 !
0;
1>
1]
0^
03
0/
12
0M
1L
1X
0G
0.
1-
1)
0'
0N
1M
1S
0L
1J
1+
0)
1(
1'
0&
#750000
b1011 !
1;
1^
13
1/
0S
1K
0J
0+
1*
0(
#760000
b1111 !
b1101 !
b1100 !
0;
0>
1B
1H
0X
0F
0C
0]
0^
03
0/
02
01
00
0-
1,
0M
0K
0H
1X
1G
1.
1-
0,
0*
0'
1K
1*
#770000
b1101 !
1;
1^
13
1/
1O
1N
1M
1S
0K
0*
1(
1'
1&
1%
#780000
b1111 !
b1110 !
0;
1>
1]
0^
03
0/
12
0O
0N
0M
0S
1K
1H
0X
0G
0.
0-
1,
1*
0(
0'
0&
0%
0K
0*
#790000
b1111 !
1;
1^
13
1/
1M
1'
#800000
b101 "
b111 !
b11 !
b1 !
b0 !
0;
0>
0B
0D
1<
0]
0I
0H
1X
1G
1C
11
1.
1-
0,
0$
02
1O
1N
1S
0G
0.
1(
1&
1%
0O
0N
0S
1K
1*
0(
0&
0%
#810000
b1 !
1;
1]
0^
03
0/
12
1S
0K
1J
1G
1.
1+
0*
1(
0M
0S
1K
0J
0+
1*
0(
0'
#820000
b11 !
b10 !
0;
1>
1^
13
1/
1O
1N
1M
1S
0K
0*
1(
1'
1&
1%
#830000
b11 !
1;
1@
0]
0^
03
0/
02
1H
0X
0G
1F
0C
0O
0N
0M
0S
1K
1*
0(
0'
0&
0%
01
10
0.
0-
1,
0K
0*
#840000
b111 !
b101 !
b100 !
0;
0>
1B
0@
1I
0H
1G
1C
1^
13
1/
11
1.
0,
1$
0I
1H
0G
0C
1N
1M
1'
1&
01
0.
1,
0$
0N
0&
#850000
b101 !
1;
1]
0^
03
0/
12
0M
1I
0H
0,
1$
0'
1O
1%
#860000
b111 !
b110 !
0;
1>
1^
13
1/
1N
1M
1S
1J
1+
1(
1'
1&
#870000
b111 !
1;
1@
0]
0^
03
0/
02
1G
1C
0N
0M
0S
0J
0+
0(
0'
0&
11
1.
0O
1N
1L
1)
1&
0%
#880000
b1111 !
b1011 !
b1001 !
b1000 !
0;
0>
0B
1D
0@
1X
0F
0C
1^
13
1/
01
00
1-
0X
1F
1C
1O
1M
1S
0L
0)
1(
1'
1%
11
10
0-
0O
0S
0(
0%
#890000
b1001 !
1;
1]
0^
03
0/
12
0M
1L
1X
0G
0.
1-
1)
0'
0N
1M
1S
0L
1J
1+
0)
1(
1'
0&
#900000
b1011 !
b1010 !
0;
1>
1^
13
1/
0S
1K
0J
0+
1*
0(
#910000
b1011 !
1;
1@
0]
0^
03
0/
02
1G
0F
0C
1S
0K
1J
1+
0*
1(
01
00
1.
0M
0S
1K
0J
0+
1*
0(
0'
#920000
b1111 !
b1101 !
b1100 !
0;
0>
1B
0@
1H
0X
1C
1^
13
1/
11
0-
1,
0H
1X
0C
1J
1+
01
1-
0,
1O
1N
1M
1S
0K
0J
0+
0*
1(
1'
1&
1%
#930000
b1101 !
1;
1]
0^
03
0/
12
0O
0N
0M
0S
1K
1H
0X
0G
0.
0-
1,
1*
0(
0'
0&
0%
0K
0*
#940000
b1111 !
b1110 !
0;
1>
1^
13
1/
1M
1'
#950000
b1111 !
1;
1@
0]
0^
03
0/
02
1G
1C
0M
0'
11
1.
1S
1(
#960000
b111 "
b110 "
b111 !
b11 !
b1 !
b0 !
0;
0>
0B
0D
0<
1?
0@
1]
0I
0G
1F
0C
01
10
0.
0$
12
0H
1X
1G
0F
1C
0S
0(
11
00
1.
1-
0,
1K
1*
#970000
b1 !
1;
1^
13
1/
1O
1N
1M
1S
0K
0*
1(
1'
1&
1%
#980000
b11 !
b10 !
0;
1>
1@
0]
0^
03
0/
02
1H
0X
0G
1F
0C
0O
0N
0M
0S
1K
1*
0(
0'
0&
0%
01
10
0.
0-
1,
0K
0*
#990000
b11 !
1;
1^
13
1/
1M
1'
#1000000
b111 !
b101 !
b100 !
0;
0>
1B
0@
1I
0H
1G
1C
1]
0^
03
0/
12
11
1.
0,
1$
0G
0C
1N
0M
1L
1)
0'
1&
01
0.
1O
0N
0L
0)
0&
1%
#1010000
b101 !
1;
1^
13
1/
1N
1M
1S
1J
1+
1(
1'
1&
#1020000
b111 !
b110 !
0;
1>
1@
0]
0^
03
0/
02
1G
1C
0N
0M
0S
0J
0+
0(
0'
0&
11
1.
0O
1N
1L
1)
1&
0%
#1030000
b111 !
1;
1^
13
1/
1M
0L
0)
1'
#1040000
b1111 !
b1011 !
b1001 !
b1000 !
0;
0>
0B
1D
0@
1X
0F
0C
1]
0^
03
0/
12
01
00
1-
0G
1F
1C
0N
0M
1K
1*
0'
0&
11
10
0.
1M
1S
0K
1J
1+
0*
1(
1'
#1050000
b1001 !
1;
1^
13
1/
0S
1K
0J
0+
1*
0(
#1060000
b1011 !
b1010 !
0;
1>
1@
0]
0^
03
0/
02
1G
0F
0C
1S
0K
1J
1+
0*
1(
01
00
1.
0M
0S
1K
0J
0+
1*
0(
0'
#1070000
b1011 !
1;
1^
13
1/
1O
1N
1M
1S
0K
0*
1(
1'
1&
1%
#1080000
b1111 !
b1101 !
b1100 !
0;
0>
1B
0@
1H
0X
1C
1]
0^
03
0/
12
11
0-
1,
0G
0C
0O
0N
0M
0'
0&
0%
01
0.
0S
0(
#1090000
b1101 !
1;
1^
13
1/
1M
1'
#1100000
b1111 !
b1110 !
0;
1>
1@
0]
0^
03
0/
02
1G
1C
0M
0'
11
1.
1S
1(
#1110000
b1111 !
1;
1^
13
1/
0S
1K
1J
1+
1*
0(
#1120000
b111 "
b111 !
b11 !
b1 !
b0 !
0;
0>
0B
0D
1<
0@
1]
0I
0G
1F
0C
01
10
0.
0$
12
0H
1X
1G
0F
1C
1M
0K
0J
0+
0*
1'
11
00
1.
1-
0,
1O
1N
1S
1(
1&
1%
#1130000
b1 !
1;
1@
0]
0^
03
0/
02
1H
0X
0G
1F
0C
0O
0N
0M
0S
1K
1*
0(
0'
0&
0%
01
10
0.
0-
1,
0K
0*
#1140000
b11 !
b10 !
0;
1>
1^
13
1/
1M
1'
#1150000
b11 !
1;
1]
0^
03
0/
12
0M
1I
0H
0,
1$
0'
1O
1%
#1160000
b111 !
b101 !
b100 !
0;
0>
1B
0@
1X
1C
1^
13
1/
11
1-
0X
0C
0O
1M
1K
1*
1'
0%
01
0-
1O
1N
1S
0K
1J
1+
0*
1(
1&
1%
#1170000
b101 !
1;
1@
0]
0^
03
0/
02
1G
1C
0N
0M
0S
0J
0+
0(
0'
0&
11
1.
0O
1N
1L
1)
1&
0%
#1180000
b111 !
b110 !
0;
1>
1^
13
1/
1M
0L
0)
1'
#1190000
b111 !
1;
1]
0^
03
0/
12
0M
1L
1X
0G
0.
1-
1)
0'
0N
1M
1S
0L
1J
1+
0)
1(
1'
0&
#1200000
b1111 !
b1011 !
b1001 !
b1000 !
0;
0>
0B
1D
0@
1H
0X
0F
0C
1^
13
1/
01
00
0-
1,
0H
1X
1F
1C
0S
0J
0+
0(
11
10
1-
0,
1K
1*
#1210000
b1001 !
1;
1@
0]
0^
03
0/
02
1G
0F
0C
1S
0K
1J
1+
0*
1(
01
00
1.
0M
0S
1K
0J
0+
1*
0(
0'
#1220000
b1011 !
b1010 !
0;
1>
1^
13
1/
1O
1N
1M
1S
0K
0*
1(
1'
1&
1%
#1230000
b1011 !
1;
1]
0^
03
0/
12
0O
0N
0M
0S
1K
1H
0X
0G
0.
0-
1,
1*
0(
0'
0&
0%
0K
0*
#1240000
b1111 !
b1101 !
b1100 !
0;
0>
1B
0@
1X
1C
1^
13
1/
11
1-
0X
0C
1N
1J
1+
1&
01
0-
0N
1M
0J
0+
1'
0&
#1250000
b1101 !
1;
1@
0]
0^
03
0/
02
1G
1C
0M
0'
11
1.
1S
1(
#1260000
b1111 !
b1110 !
0;
1>
1^
13
1/
0S
1K
1J
1+
1*
0(
#1270000
b1111 !
1;
1]
0^
03
0/
12
1S
0K
0J
1X
0G
0.
1-
0+
0*
1(
1O
0S
1L
1K
1*
1)
0(
1%
#1280000
b1111 "
b1011 "
b1001 "
b1000 "
b111 !
b11 !
b1 !
b0 !
0;
0>
0B
0D
0<
0?
0A
1E
0@
0H
1F
0]
02
10
0,
0I
1H
0X
0C
0O
1M
1S
0L
0K
1J
1+
0*
0)
1(
1'
0%
01
0-
1,
0$
0M
0S
0J
0+
0(
0'
#1290000
b1 !
1;
1^
13
1/
1M
1'
#1300000
b11 !
b10 !
0;
1>
1]
0^
03
0/
12
0M
1I
0H
0,
1$
0'
1O
1%
#1310000
b11 !
1;
1^
13
1/
1N
1M
1S
1J
1+
1(
1'
1&
#1320000
b111 !
b101 !
b100 !
0;
0>
1B
1X
1C
0]
0^
03
0/
02
11
1-
0O
0N
0X
1G
1.
0-
0&
0%
1N
0M
0S
1L
0J
0+
1)
0(
0'
1&
#1330000
b101 !
1;
1^
13
1/
1M
0L
0)
1'
#1340000
b111 !
b110 !
0;
1>
1]
0^
03
0/
12
0M
1L
1X
0G
0.
1-
1)
0'
0N
1M
1S
0L
1J
1+
0)
1(
1'
0&
#1350000
b111 !
1;
1^
13
1/
0S
1K
0J
0+
1*
0(
#1360000
b1111 !
b1011 !
b1001 !
b1000 !
0;
0>
0B
1D
1H
0X
0F
0C
0]
0^
03
0/
02
01
00
0-
1,
0M
0K
0H
1X
1G
1.
1-
0,
0*
0'
1K
1*
#1370000
b1001 !
1;
1^
13
1/
1O
1N
1M
1S
0K
0*
1(
1'
1&
1%
#1380000
b1011 !
b1010 !
0;
1>
1]
0^
03
0/
12
0O
0N
0M
0S
1K
1H
0X
0G
0.
0-
1,
1*
0(
0'
0&
0%
0K
0*
#1390000
b1011 !
1;
1^
13
1/
1M
1'
#1400000
b1111 !
b1101 !
b1100 !
0;
0>
1B
1X
1C
0]
0^
03
0/
02
11
1-
1O
0M
1L
1K
0X
1G
1.
0-
1*
1)
0'
1%
0O
1S
0L
0K
0*
0)
1(
0%
#1410000
b1101 !
1;
1^
13
1/
0S
1K
1J
1+
1*
0(
#1420000
b1111 !
b1110 !
0;
1>
1]
0^
03
0/
12
1S
0K
0J
1X
0G
0.
1-
0+
0*
1(
1O
0S
1L
1K
1*
1)
0(
1%
#1430000
b1111 !
1;
1^
13
1/
0O
1N
0L
0K
1J
1+
0*
0)
1&
0%
#1440000
b1001 "
b111 !
b11 !
b1 !
b0 !
0;
0>
0B
0D
1<
0]
0H
0X
1F
0C
01
10
0-
0,
02
1O
1M
1S
0I
1H
1,
0$
1(
1'
1%
0O
0N
0S
0J
0+
0(
0&
0%
#1450000
b1 !
1;
1]
0^
03
0/
12
0M
1I
0H
0,
1$
0'
1O
1%
#1460000
b11 !
b10 !
0;
1>
1^
13
1/
1N
1M
1S
1J
1+
1(
1'
1&
#1470000
b11 !
1;
1@
0]
0^
03
0/
02
1G
1C
0N
0M
0S
0J
0+
0(
0'
0&
11
1.
0O
1N
1L
1)
1&
0%
#1480000
b111 !
b101 !
b100 !
0;
0>
1B
0@
1X
0F
0C
1^
13
1/
01
00
1-
0X
1F
1C
1O
1M
1S
0L
0)
1(
1'
1%
11
10
0-
0O
0S
0(
0%
#1490000
b101 !
1;
1]
0^
03
0/
12
0M
1L
1X
0G
0.
1-
1)
0'
0N
1M
1S
0L
1J
1+
0)
1(
1'
0&
#1500000
b111 !
b110 !
0;
1>
1^
13
1/
0S
1K
0J
0+
1*
0(
#1510000
b111 !
1;
1@
0]
0^
03
0/
02
1G
0F
0C
1S
0K
1J
1+
0*
1(
01
00
1.
0M
0S
1K
0J
0+
1*
0(
0'
#1520000
b1111 !
b1011 !
b1001 !
b1000 !
0;
0>
0B
1D
0@
1H
0X
1C
1^
13
1/
11
0-
1,
0H
1X
0C
1J
1+
01
1-
0,
1O
1N
1M
1S
0K
0J
0+
0*
1(
1'
1&
1%
#1530000
b1001 !
1;
1]
0^
03
0/
12
0O
0N
0M
0S
1K
1H
0X
0G
0.
0-
1,
1*
0(
0'
0&
0%
0K
0*
#1540000
b1011 !
b1010 !
0;
1>
1^
13
1/
1M
1'
#1550000
b1011 !
1;
1@
0]
0^
03
0/
02
1G
1C
0M
0'
11
1.
1S
1(
#1560000
b1111 !
b1101 !
b1100 !
0;
0>
1B
0@
1X
1F
0C
1^
13
1/
01
10
1-
0X
0F
1C
1L
1K
1*
1)
11
00
0-
0S
0L
1J
1+
0)
0(
#1570000
b1101 !
1;
1]
0^
03
0/
12
1S
0K
0J
1X
0G
0.
1-
0+
0*
1(
1O
0S
1L
1K
1*
1)
0(
1%
#1580000
b1111 !
b1110 !
0;
1>
1^
13
1/
0O
1N
0L
0K
1J
1+
0*
0)
1&
0%
#1590000
b1111 !
1;
1@
0]
0^
03
0/
02
1G
1F
0C
1O
0N
1L
1K
0J
0+
1*
1)
0&
1%
01
10
1.
0O
0%
#1600000
b1011 "
b1010 "
b111 !
b11 !
b1 !
b0 !
0;
0>
0B
0D
0<
1?
0@
1]
0H
0X
1C
11
0-
0,
12
0G
0C
1N
0K
0*
1&
01
0.
1O
0N
0L
0)
0&
1%
#1610000
b1 !
1;
1^
13
1/
1N
1M
1S
1J
1+
1(
1'
1&
#1620000
b11 !
b10 !
0;
1>
1@
0]
0^
03
0/
02
1G
1C
0N
0M
0S
0J
0+
0(
0'
0&
11
1.
0O
1N
1L
1)
1&
0%
#1630000
b11 !
1;
1^
13
1/
1M
0L
0)
1'
#1640000
b111 !
b101 !
b100 !
0;
0>
1B
0@
1X
0F
0C
1]
0^
03
0/
12
01
00
1-
0G
1F
1C
0N
0M
1K
1*
0'
0&
11
10
0.
1M
1S
0K
1J
1+
0*
1(
1'
#1650000
b101 !
1;
1^
13
1/
0S
1K
0J
0+
1*
0(
#1660000
b111 !
b110 !
0;
1>
1@
0]
0^
03
0/
02
1G
0F
0C
1S
0K
1J
1+
0*
1(
01
00
1.
0M
0S
1K
0J
0+
1*
0(
0'
#1670000
b111 !
1;
1^
13
1/
1O
1N
1M
1S
0K
0*
1(
1'
1&
1%
#1680000
b1111 !
b1011 !
b1001 !
b1000 !
0;
0>
0B
1D
0@
1H
0X
1C
1]
0^
03
0/
12
11
0-
1,
0G
0C
0O
0N
0M
0'
0&
0%
01
0.
0S
0(
#1690000
b1001 !
1;
1^
13
1/
1M
1'
#1700000
b1011 !
b1010 !
0;
1>
1@
0]
0^
03
0/
02
1G
1C
0M
0'
11
1.
1S
1(
#1710000
b1011 !
1;
1^
13
1/
0S
1K
1J
1+
1*
0(
#1720000
b1111 !
b1101 !
b1100 !
0;
0>
1B
0@
1X
1F
0C
1]
0^
03
0/
12
01
10
1-
0G
0F
1C
1L
0J
0+
1)
11
00
0.
1O
1%
#1730000
b1101 !
1;
1^
13
1/
0O
1N
0L
0K
1J
1+
0*
0)
1&
0%
#1740000
b1111 !
b1110 !
0;
1>
1@
0]
0^
03
0/
02
1G
1F
0C
1O
0N
1L
1K
0J
0+
1*
1)
0&
1%
01
10
1.
0O
0%
#1750000
b1111 !
1;
1^
13
1/
1S
1(
#1760000
b1011 "
b111 !
b11 !
b1 !
b0 !
0;
0>
0B
0D
1<
0@
1]
0H
0X
1C
11
0-
0,
12
0G
0C
1N
1M
0S
0L
0K
0*
0)
0(
1'
1&
01
0.
1O
1S
1J
1+
1(
1%
#1770000
b1 !
1;
1@
0]
0^
03
0/
02
1G
1C
0N
0M
0S
0J
0+
0(
0'
0&
11
1.
0O
1N
1L
1)
1&
0%
#1780000
b11 !
b10 !
0;
1>
1^
13
1/
1M
0L
0)
1'
