full_adder_with_decoder/simulation/qsim/full_adder_with_decoder.msim.vcd
$comment
	File created using the following command:
		vcd file full_adder_with_decoder.msim.vcd -direction
$end
$date
	Wed Sep 25 21:27:19 2019
$end
$version
	ModelSim Version 10.5b
$end
$timescale
	1ps
$end

$scope module full_adder_with_decoder_vlg_vec_tst $end
$var reg 1 ! A $end
$var reg 1 " B $end
$var reg 1 # Cin $end
$var wire 1 $ Cout $end
$var wire 1 % S $end

$scope module i1 $end
$var wire 1 & gnd $end
$var wire 1 ' vcc $end
$var wire 1 ( unknown $end
$var tri1 1 ) devclrn $end
$var tri1 1 * devpor $end
$var tri1 1 + devoe $end
$var wire 1 , ~QUARTUS_CREATED_GND~I_combout $end
$var wire 1 - A~input_o $end
$var wire 1 . Cin~input_o $end
$var wire 1 / B~input_o $end
$var wire 1 0 S~0_combout $end
$var wire 1 1 Cout~0_combout $end
$upscope $end
$upscope $end
$enddefinitions $end
#0
$dumpvars
0!
0"
0#
0$
0%
0&
1'
x(
1)
1*
1+
0,
0-
0.
0/
00
01
$end
#10000
1"
1/
10
1%
#20000
1!
0"
1-
0/
#30000
1"
1/
11
00
0%
1$
#40000
1#
0!
0"
1.
0-
0/
01
10
1%
0$
#50000
1"
1/
11
00
0%
1$
#60000
1!
0"
1-
0/
#70000
1"
1/
10
1%
