four_bit_multiplier/simulation/qsim/four_bit_multiplier.msim.vcd
$comment
	File created using the following command:
		vcd file four_bit_multiplier.msim.vcd -direction
$end
$date
	Sun Sep 22 19:50:43 2019
$end
$version
	ModelSim Version 10.5b
$end
$timescale
	1ps
$end

$scope module four_bit_multiplier_vlg_vec_tst $end
$var reg 3 ! A [2:0] $end
$var reg 4 " B [3:0] $end
$var wire 1 # C [6] $end
$var wire 1 $ C [5] $end
$var wire 1 % C [4] $end
$var wire 1 & C [3] $end
$var wire 1 ' C [2] $end
$var wire 1 ( C [1] $end
$var wire 1 ) C [0] $end

$scope module i1 $end
$var wire 1 * gnd $end
$var wire 1 + vcc $end
$var wire 1 , unknown $end
$var tri1 1 - devclrn $end
$var tri1 1 . devpor $end
$var tri1 1 / devoe $end
$var wire 1 0 ~QUARTUS_CREATED_GND~I_combout $end
$var wire 1 1 A[0]~input_o $end
$var wire 1 2 B[0]~input_o $end
$var wire 1 3 M~0_combout $end
$var wire 1 4 B[1]~input_o $end
$var wire 1 5 A[1]~input_o $end
$var wire 1 6 cl_four_bit_adder_0|half_adder_0|S~combout $end
$var wire 1 7 A[2]~input_o $end
$var wire 1 8 B[2]~input_o $end
$var wire 1 9 cl_four_bit_adder_1|half_adder_0|S~combout $end
$var wire 1 : cl_four_bit_adder_1|half_adder_0|C~combout $end
$var wire 1 ; B[3]~input_o $end
$var wire 1 < cl_four_bit_adder_1|C~0_combout $end
$var wire 1 = cl_four_bit_adder_0|Cout~0_combout $end
$var wire 1 > cl_four_bit_adder_1|half_adder_3|S~combout $end
$var wire 1 ? cl_four_bit_adder_1|S[3]~0_combout $end
$var wire 1 @ cl_four_bit_adder_1|Cout~0_combout $end
$var wire 1 A cl_four_bit_adder_1|Cout~1_combout $end
$var wire 1 B cl_four_bit_adder_1|Cout~2_combout $end
$var wire 1 C cl_four_bit_adder_0|S [3] $end
$var wire 1 D cl_four_bit_adder_0|S [2] $end
$var wire 1 E cl_four_bit_adder_0|S [1] $end
$var wire 1 F cl_four_bit_adder_0|S [0] $end
$var wire 1 G cl_four_bit_adder_1|S [3] $end
$var wire 1 H cl_four_bit_adder_1|S [2] $end
$var wire 1 I cl_four_bit_adder_1|S [1] $end
$var wire 1 J cl_four_bit_adder_1|S [0] $end
$upscope $end
$upscope $end
$enddefinitions $end
#0
$dumpvars
b0 !
b0 "
0)
0(
0'
0&
0%
0$
0#
0*
1+
x,
1-
1.
1/
00
01
02
03
04
05
06
07
08
09
0:
0;
0<
0=
0>
0?
0@
0A
0B
zF
zE
0D
0C
zJ
0I
0H
zG
$end
#10000
b1 "
12
#20000
b11 "
b10 "
02
14
#30000
b11 "
12
#40000
b111 "
b101 "
b100 "
02
04
18
#50000
b101 "
12
#60000
b111 "
b110 "
02
14
#70000
b111 "
12
#80000
b1111 "
b1011 "
b1001 "
b1000 "
02
04
08
1;
#90000
b1001 "
12
#100000
b1011 "
b1010 "
02
14
#110000
b1011 "
12
#120000
b1111 "
b1101 "
b1100 "
02
04
18
#130000
b1101 "
12
#140000
b1111 "
b1110 "
02
14
#150000
b1111 "
12
#160000
b1 !
b111 "
b11 "
b1 "
b0 "
02
04
08
0;
11
#170000
b1 "
12
13
1)
#180000
b11 "
b10 "
02
14
16
03
0)
1(
#190000
b11 "
12
13
1)
#200000
b111 "
b101 "
b100 "
02
04
18
19
06
03
0)
0(
1'
#210000
b101 "
12
13
1)
#220000
b111 "
b110 "
02
14
16
03
0)
1(
#230000
b111 "
12
13
1)
#240000
b1111 "
b1011 "
b1001 "
b1000 "
02
04
08
1;
1D
09
06
03
0)
0(
0'
1I
1&
#250000
b1001 "
12
13
1)
#260000
b1011 "
b1010 "
02
14
16
03
0)
1(
#270000
b1011 "
12
13
1)
#280000
b1111 "
b1101 "
b1100 "
02
04
18
19
06
03
0)
0(
1'
#290000
b1101 "
12
13
1)
#300000
b1111 "
b1110 "
02
14
16
03
0)
1(
#310000
b1111 "
12
13
1)
#320000
b11 !
b10 !
b111 "
b11 "
b1 "
b0 "
02
04
08
0;
01
15
0D
09
06
03
0)
0(
0'
0I
0&
#330000
b1 "
12
16
1(
#340000
b11 "
b10 "
02
14
19
06
0(
1'
#350000
b11 "
12
16
1(
#360000
b111 "
b101 "
b100 "
02
04
18
1D
09
06
0(
0'
1I
1&
#370000
b101 "
12
16
1(
#380000
b111 "
b110 "
02
14
19
06
0(
1'
#390000
b111 "
12
16
1(
#400000
b1111 "
b1011 "
b1001 "
b1000 "
02
04
08
1;
1C
0D
09
06
0(
0'
1H
0I
0&
1%
#410000
b1001 "
12
16
1(
#420000
b1011 "
b1010 "
02
14
19
06
0(
1'
#430000
b1011 "
12
16
1(
#440000
b1111 "
b1101 "
b1100 "
02
04
18
1D
09
06
0(
0'
1I
1&
#450000
b1101 "
12
16
1(
#460000
b1111 "
b1110 "
02
14
19
06
0(
1'
#470000
b1111 "
12
16
1(
#480000
b11 !
b111 "
b11 "
b1 "
b0 "
02
04
08
0;
11
0C
0D
09
06
0(
0'
0H
0I
0&
0%
#490000
b1 "
12
16
13
1)
1(
#500000
b11 "
b10 "
02
14
19
03
0)
1'
#510000
b11 "
12
1D
09
06
13
1)
0(
0'
1I
1&
#520000
b111 "
b101 "
b100 "
02
04
18
19
03
0)
1'
#530000
b101 "
12
16
13
1)
1(
#540000
b111 "
b110 "
02
14
1C
0D
09
03
0)
0'
1H
0I
0&
1%
#550000
b111 "
12
19
06
13
1)
0(
1'
#560000
b1111 "
b1011 "
b1001 "
b1000 "
02
04
08
1;
1D
09
03
0)
0'
1I
1&
#570000
b1001 "
12
16
13
1)
1(
#580000
b1011 "
b1010 "
02
14
19
03
0)
1'
#590000
b1011 "
12
1=
0C
0D
09
06
13
1)
0(
0'
1>
0H
0I
0&
0%
1?
1$
#600000
b1111 "
b1101 "
b1100 "
02
04
18
19
03
0)
1'
#610000
b1101 "
12
16
13
1)
1(
#620000
b1111 "
b1110 "
02
14
1D
09
03
0)
0'
1I
1&
#630000
b1111 "
12
19
06
13
1)
0(
1'
#640000
b111 !
b101 !
b100 !
b111 "
b11 "
b1 "
b0 "
02
04
08
0;
01
05
17
0=
0D
09
03
0)
0'
0>
0I
0&
0?
0$
#650000
b1 "
12
19
1'
#660000
b11 "
b10 "
02
14
1I
09
0'
1&
#670000
b11 "
12
19
1'
#680000
b111 "
b101 "
b100 "
02
04
18
1H
09
0I
0&
0'
1%
#690000
b101 "
12
19
1'
#700000
b111 "
b110 "
02
14
1I
09
0'
1&
#710000
b111 "
12
19
1'
#720000
b1111 "
b1011 "
b1001 "
b1000 "
02
04
08
1;
1>
0H
09
0I
0&
0'
0%
1?
1$
#730000
b1001 "
12
19
1'
#740000
b1011 "
b1010 "
02
14
1I
09
0'
1&
#750000
b1011 "
12
19
1'
#760000
b1111 "
b1101 "
b1100 "
02
04
18
1H
09
0I
0&
0'
1%
#770000
b1101 "
12
19
1'
#780000
b1111 "
b1110 "
02
14
1I
09
0'
1&
#790000
b1111 "
12
19
1'
#800000
b101 !
b111 "
b11 "
b1 "
b0 "
02
04
08
0;
11
0>
09
0H
0I
0&
0%
0'
0?
0$
#810000
b1 "
12
19
13
1)
1'
#820000
b11 "
b10 "
02
14
1I
09
16
03
0)
1(
0'
1&
#830000
b11 "
12
19
13
1)
1'
#840000
b111 "
b101 "
b100 "
02
04
18
1H
0I
06
03
0)
0(
0&
1%
#850000
b101 "
12
1:
09
13
1)
0'
1I
1&
#860000
b111 "
b110 "
02
14
1<
0:
0H
0I
19
16
03
0)
1(
1'
0&
0%
0<
1H
1I
1?
1$
1&
1%
0?
0$
#870000
b111 "
12
1:
09
13
1)
0'
1<
0H
0I
0&
0%
1?
1$
#880000
b1111 "
b1011 "
b1001 "
b1000 "
02
04
08
1;
1>
1D
0:
0<
0?
1I
06
03
0)
0(
1&
0$
1?
1$
#890000
b1001 "
12
19
13
1)
1'
#900000
b1011 "
b1010 "
02
14
1<
1H
0I
09
16
03
0)
1(
0'
0&
1%
#910000
b1011 "
12
19
13
1)
1'
#920000
b1111 "
b1101 "
b1100 "
02
04
18
0<
1B
0?
1I
06
03
0)
0(
1&
0$
1#
0B
1?
1$
0#
#930000
b1101 "
12
1:
09
13
1)
0'
1<
0H
0I
0&
0%
1B
0?
0$
1#
#940000
b1111 "
b1110 "
02
14
0:
1I
19
16
03
0)
1(
1'
1&
0I
0&
#950000
b1111 "
12
1:
09
13
1)
0'
1I
1&
#960000
b111 !
b110 !
b111 "
b11 "
b1 "
b0 "
02
04
08
0;
01
15
0D
0:
0>
06
03
0B
1?
1H
0I
0&
1%
1$
0#
0)
0(
0<
0?
0H
0%
0$
#970000
b1 "
12
19
16
1(
1'
#980000
b11 "
b10 "
02
14
1I
06
0(
1&
#990000
b11 "
12
1:
09
16
1(
0'
1<
1H
0I
0&
1%
#1000000
b111 "
b101 "
b100 "
02
04
18
1D
0:
0<
1?
1I
06
0(
1&
1$
0?
0$
#1010000
b101 "
12
19
16
1(
1'
#1020000
b111 "
b110 "
02
14
1<
0H
0I
06
0(
0&
0%
1?
1$
#1030000
b111 "
12
1:
09
16
1(
0'
1I
1&
#1040000
b1111 "
b1011 "
b1001 "
b1000 "
02
04
08
1;
1>
1C
0D
0:
0?
1H
0I
06
0(
0&
1%
0$
0<
1B
1#
0B
1?
1$
0#
#1050000
b1001 "
12
19
16
1(
1'
#1060000
b1011 "
b1010 "
02
14
1I
06
0(
1&
#1070000
b1011 "
12
1:
09
16
1(
0'
1<
0H
0I
0&
0%
1B
0?
0$
1#
#1080000
b1111 "
b1101 "
b1100 "
02
04
18
1D
0:
0<
1I
06
0(
1&
#1090000
b1101 "
12
19
16
1(
1'
#1100000
b1111 "
b1110 "
02
14
1<
1H
0I
06
0(
0&
1%
#1110000
b1111 "
12
1:
09
16
1(
0'
1I
1&
#1120000
b111 !
b111 "
b11 "
b1 "
b0 "
02
04
08
0;
11
0C
0D
0:
0>
06
0H
0I
0&
0%
0(
0<
0B
0#
#1130000
b1 "
12
19
16
13
1)
1(
1'
#1140000
b11 "
b10 "
02
14
1I
03
0)
1&
#1150000
b11 "
12
1D
06
13
1)
0(
1<
1H
0I
0&
1%
#1160000
b111 "
b101 "
b100 "
02
04
18
0<
1?
1I
03
0)
1&
1$
0?
0$
#1170000
b101 "
12
1:
09
16
13
1)
1(
0'
1<
0H
0I
0&
0%
1?
1$
#1180000
b111 "
b110 "
02
14
1C
0D
0:
1I
03
0)
1&
0<
#1190000
b111 "
12
1:
06
13
1)
0(
1<
1H
0I
0&
1%
#1200000
b1111 "
b1011 "
b1001 "
b1000 "
02
04
08
1;
1@
1>
1D
0:
0<
1I
03
0)
1&
#1210000
b1001 "
12
19
16
13
1)
1(
1'
#1220000
b1011 "
b1010 "
02
14
1<
0H
0I
03
0)
0&
0%
1B
0?
0$
1#
#1230000
b1011 "
12
1A
1=
0C
0D
06
13
1)
0(
0<
0>
1I
1?
1$
1&
0?
0$
#1240000
b1111 "
b1101 "
b1100 "
02
04
18
1H
0I
03
0)
0&
1%
#1250000
b1101 "
12
1:
09
16
13
1)
1(
0'
1I
1&
#1260000
b1111 "
b1110 "
02
14
1<
1D
0:
0H
0I
03
0)
0&
0%
1?
1$
#1270000
b1111 "
12
1:
06
13
1)
0(
1I
1&
