seven_seg/simulation/qsim/seven_seg.msim.vcd
$comment
	File created using the following command:
		vcd file seven_seg.msim.vcd -direction
$end
$date
	Mon Aug 26 22:43:07 2019
$end
$version
	ModelSim Version 10.5b
$end
$timescale
	1ps
$end

$scope module seven_seg_vlg_vec_tst $end
$var reg 1 ! x1 $end
$var reg 1 " x2 $end
$var reg 1 # x3 $end
$var reg 1 $ x4 $end
$var wire 1 % h0d0 $end
$var wire 1 & h0d1 $end

$scope module i1 $end
$var wire 1 ' gnd $end
$var wire 1 ( vcc $end
$var wire 1 ) unknown $end
$var tri1 1 * devclrn $end
$var tri1 1 + devpor $end
$var tri1 1 , devoe $end
$var wire 1 - ~QUARTUS_CREATED_GND~I_combout $end
$var wire 1 . x3~input_o $end
$var wire 1 / x1~input_o $end
$var wire 1 0 x4~input_o $end
$var wire 1 1 x2~input_o $end
$var wire 1 2 h0d0~0_combout $end
$var wire 1 3 h0d1~0_combout $end
$upscope $end
$upscope $end
$enddefinitions $end
#0
$dumpvars
0!
0"
0#
0$
0%
0&
0'
1(
x)
1*
1+
1,
0-
0.
0/
00
01
02
03
$end
#10000
1$
10
12
1%
#20000
1#
0$
1.
00
02
0%
#30000
1$
10
#40000
1"
0#
0$
11
0.
00
12
1%
#50000
1$
10
13
02
0%
1&
#60000
1#
0$
1.
00
#70000
1$
10
03
0&
#80000
1!
0"
0#
0$
1/
01
0.
00
#90000
1$
10
#100000
1#
0$
1.
00
#110000
1$
10
13
12
1%
1&
#120000
1"
0#
0$
11
0.
00
02
0%
#130000
1$
10
03
12
1%
0&
#140000
1#
0$
1.
00
13
02
0%
1&
#150000
1$
10
#160000
0!
0"
0#
0$
0/
01
0.
00
03
0&
