eight_to_one_line_mux/simulation/qsim/eight_to_one_line_mux.msim.vcd
$comment
	File created using the following command:
		vcd file eight_to_one_line_mux.msim.vcd -direction
$end
$date
	Sat Sep 28 19:23:52 2019
$end
$version
	ModelSim Version 10.5b
$end
$timescale
	1ps
$end

$scope module eight_to_one_line_mux_vlg_vec_tst $end
$var reg 8 ! I [7:0] $end
$var reg 3 " S [2:0] $end
$var wire 1 # Y $end

$scope module i1 $end
$var wire 1 $ gnd $end
$var wire 1 % vcc $end
$var wire 1 & unknown $end
$var tri1 1 ' devclrn $end
$var tri1 1 ( devpor $end
$var tri1 1 ) devoe $end
$var wire 1 * ~QUARTUS_CREATED_GND~I_combout $end
$var wire 1 + S[2]~input_o $end
$var wire 1 , I[5]~input_o $end
$var wire 1 - I[6]~input_o $end
$var wire 1 . I[3]~input_o $end
$var wire 1 / I[2]~input_o $end
$var wire 1 0 S[0]~input_o $end
$var wire 1 1 S[1]~input_o $end
$var wire 1 2 I[1]~input_o $end
$var wire 1 3 I[0]~input_o $end
$var wire 1 4 Mux0~4_combout $end
$var wire 1 5 I[7]~input_o $end
$var wire 1 6 I[4]~input_o $end
$var wire 1 7 Mux0~0_combout $end
$upscope $end
$upscope $end
$enddefinitions $end
#0
$dumpvars
b0 !
b0 "
0#
0$
1%
x&
1'
1(
1)
0*
0+
0,
0-
0.
0/
00
01
02
03
04
05
06
07
$end
#1000
b1 !
13
14
17
1#
#2000
b11 !
b10 !
03
12
04
07
0#
#3000
b11 !
13
14
17
1#
#4000
b111 !
b101 !
b100 !
03
02
1/
04
07
0#
#5000
b101 !
13
14
17
1#
#6000
b111 !
b110 !
03
12
04
07
0#
#7000
b111 !
13
14
17
1#
#8000
b1111 !
b1011 !
b1001 !
b1000 !
03
02
0/
1.
04
07
0#
#9000
b1001 !
13
14
17
1#
#10000
b1011 !
b1010 !
03
12
04
07
0#
#11000
b1011 !
13
14
17
1#
#12000
b1111 !
b1101 !
b1100 !
03
02
1/
04
07
0#
#13000
b1101 !
13
14
17
1#
#14000
b1111 !
b1110 !
03
12
04
07
0#
#15000
b1111 !
13
14
17
1#
#16000
b11111 !
b10111 !
b10011 !
b10001 !
b10000 !
03
02
0/
0.
16
04
07
0#
#17000
b10001 !
13
14
17
1#
#18000
b10011 !
b10010 !
03
12
04
07
0#
#19000
b10011 !
13
14
17
1#
#20000
b10111 !
b10101 !
b10100 !
03
02
1/
04
07
0#
#21000
b10101 !
13
14
17
1#
#22000
b10111 !
b10110 !
03
12
04
07
0#
#23000
b10111 !
13
14
17
1#
#24000
b11111 !
b11011 !
b11001 !
b11000 !
03
02
0/
1.
04
07
0#
#25000
b11001 !
13
14
17
1#
#26000
b11011 !
b11010 !
03
12
04
07
0#
#27000
b11011 !
13
14
17
1#
#28000
b11111 !
b11101 !
b11100 !
03
02
1/
04
07
0#
#29000
b11101 !
13
14
17
1#
#30000
b11111 !
b11110 !
03
12
04
07
0#
#31000
b11111 !
13
14
17
1#
#32000
b111111 !
b101111 !
b100111 !
b100011 !
b100001 !
b100000 !
03
02
0/
0.
06
1,
04
07
0#
#33000
b100001 !
13
14
17
1#
#34000
b100011 !
b100010 !
03
12
04
07
0#
#35000
b100011 !
13
14
17
1#
#36000
b100111 !
b100101 !
b100100 !
03
02
1/
04
07
0#
#37000
b100101 !
13
14
17
1#
#38000
b100111 !
b100110 !
03
12
04
07
0#
#39000
b100111 !
13
14
17
1#
#40000
b101111 !
b101011 !
b101001 !
b101000 !
03
02
0/
1.
04
07
0#
#41000
b101001 !
13
14
17
1#
#42000
b101011 !
b101010 !
03
12
04
07
0#
#43000
b101011 !
13
14
17
1#
#44000
b101111 !
b101101 !
b101100 !
03
02
1/
04
07
0#
#45000
b101101 !
13
14
17
1#
#46000
b101111 !
b101110 !
03
12
04
07
0#
#47000
b101111 !
13
14
17
1#
#48000
b111111 !
b110111 !
b110011 !
b110001 !
b110000 !
03
02
0/
0.
16
04
07
0#
#49000
b110001 !
13
14
17
1#
#50000
b110011 !
b110010 !
03
12
04
07
0#
#51000
b110011 !
13
14
17
1#
#52000
b110111 !
b110101 !
b110100 !
03
02
1/
04
07
0#
#53000
b110101 !
13
14
17
1#
#54000
b110111 !
b110110 !
03
12
04
07
0#
#55000
b110111 !
13
14
17
1#
#56000
b111111 !
b111011 !
b111001 !
b111000 !
03
02
0/
1.
04
07
0#
#57000
b111001 !
13
14
17
1#
#58000
b111011 !
b111010 !
03
12
04
07
0#
#59000
b111011 !
13
14
17
1#
#60000
b111111 !
b111101 !
b111100 !
03
02
1/
04
07
0#
#61000
b111101 !
13
14
17
1#
#62000
b111111 !
b111110 !
03
12
04
07
0#
#63000
b111111 !
13
14
17
1#
#64000
b1111111 !
b1011111 !
b1001111 !
b1000111 !
b1000011 !
b1000001 !
b1000000 !
03
02
0/
0.
06
0,
1-
04
07
0#
#65000
b1000001 !
13
14
17
1#
#66000
b1000011 !
b1000010 !
03
12
04
07
0#
#67000
b1000011 !
13
14
17
1#
#68000
b1000111 !
b1000101 !
b1000100 !
03
02
1/
04
07
0#
#69000
b1000101 !
13
14
17
1#
#70000
b1000111 !
b1000110 !
03
12
04
07
0#
#71000
b1000111 !
13
14
17
1#
#72000
b1001111 !
b1001011 !
b1001001 !
b1001000 !
03
02
0/
1.
04
07
0#
#73000
b1001001 !
13
14
17
1#
#74000
b1001011 !
b1001010 !
03
12
04
07
0#
#75000
b1001011 !
13
14
17
1#
#76000
b1001111 !
b1001101 !
b1001100 !
03
02
1/
04
07
0#
#77000
b1001101 !
13
14
17
1#
#78000
b1001111 !
b1001110 !
03
12
04
07
0#
#79000
b1001111 !
13
14
17
1#
#80000
b1011111 !
b1010111 !
b1010011 !
b1010001 !
b1010000 !
03
02
0/
0.
16
04
07
0#
#81000
b1010001 !
13
14
17
1#
#82000
b1010011 !
b1010010 !
03
12
04
07
0#
#83000
b1010011 !
13
14
17
1#
#84000
b1010111 !
b1010101 !
b1010100 !
03
02
1/
04
07
0#
#85000
b1010101 !
13
14
17
1#
#86000
b1010111 !
b1010110 !
03
12
04
07
0#
#87000
b1010111 !
13
14
17
1#
#88000
b1011111 !
b1011011 !
b1011001 !
b1011000 !
03
02
0/
1.
04
07
0#
#89000
b1011001 !
13
14
17
1#
#90000
b1011011 !
b1011010 !
03
12
04
07
0#
#91000
b1011011 !
13
14
17
1#
#92000
b1011111 !
b1011101 !
b1011100 !
03
02
1/
04
07
0#
#93000
b1011101 !
13
14
17
1#
#94000
b1011111 !
b1011110 !
03
12
04
07
0#
#95000
b1011111 !
13
14
17
1#
#96000
b1111111 !
b1101111 !
b1100111 !
b1100011 !
b1100001 !
b1100000 !
03
02
0/
0.
06
1,
04
07
0#
#97000
b1100001 !
13
14
17
1#
#98000
b1100011 !
b1100010 !
03
12
04
07
0#
#99000
b1100011 !
13
14
17
1#
#100000
b1100111 !
b1100101 !
b1100100 !
03
02
1/
04
07
0#
#101000
b1100101 !
13
14
17
1#
#102000
b1100111 !
b1100110 !
03
12
04
07
0#
#103000
b1100111 !
13
14
17
1#
#104000
b1101111 !
b1101011 !
b1101001 !
b1101000 !
03
02
0/
1.
04
07
0#
#105000
b1101001 !
13
14
17
1#
#106000
b1101011 !
b1101010 !
03
12
04
07
0#
#107000
b1101011 !
13
14
17
1#
#108000
b1101111 !
b1101101 !
b1101100 !
03
02
1/
04
07
0#
#109000
b1101101 !
13
14
17
1#
#110000
b1101111 !
b1101110 !
03
12
04
07
0#
#111000
b1101111 !
13
14
17
1#
#112000
b1111111 !
b1110111 !
b1110011 !
b1110001 !
b1110000 !
03
02
0/
0.
16
04
07
0#
#113000
b1110001 !
13
14
17
1#
#114000
b1110011 !
b1110010 !
03
12
04
07
0#
#115000
b1110011 !
13
14
17
1#
#116000
b1110111 !
b1110101 !
b1110100 !
03
02
1/
04
07
0#
#117000
b1110101 !
13
14
17
1#
#118000
b1110111 !
b1110110 !
03
12
04
07
0#
#119000
b1110111 !
13
14
17
1#
#120000
b1111111 !
b1111011 !
b1111001 !
b1111000 !
03
02
0/
1.
04
07
0#
#121000
b1111001 !
13
14
17
1#
#122000
b1111011 !
b1111010 !
03
12
04
07
0#
#123000
b1111011 !
13
14
17
1#
#124000
b1111111 !
b1111101 !
b1111100 !
03
02
1/
04
07
0#
#125000
b1111101 !
13
14
17
1#
#126000
b1111111 !
b1111110 !
03
12
04
07
0#
#127000
b1111111 !
13
14
17
1#
#128000
b11111111 !
b10111111 !
b10011111 !
b10001111 !
b10000111 !
b10000011 !
b10000001 !
b10000000 !
03
02
0/
0.
06
0,
0-
15
04
07
0#
#129000
b10000001 !
13
14
17
1#
#130000
b10000011 !
b10000010 !
03
12
04
07
0#
#131000
b10000011 !
13
14
17
1#
#132000
b10000111 !
b10000101 !
b10000100 !
03
02
1/
04
07
0#
#133000
b10000101 !
13
14
17
1#
#134000
b10000111 !
b10000110 !
03
12
04
07
0#
#135000
b10000111 !
13
14
17
1#
#136000
b10001111 !
b10001011 !
b10001001 !
b10001000 !
03
02
0/
1.
04
07
0#
#137000
b10001001 !
13
14
17
1#
#138000
b10001011 !
b10001010 !
03
12
04
07
0#
#139000
b10001011 !
13
14
17
1#
#140000
b10001111 !
b10001101 !
b10001100 !
03
02
1/
04
07
0#
#141000
b10001101 !
13
14
17
1#
#142000
b10001111 !
b10001110 !
03
12
04
07
0#
#143000
b10001111 !
13
14
17
1#
#144000
b10011111 !
b10010111 !
b10010011 !
b10010001 !
b10010000 !
03
02
0/
0.
16
04
07
0#
#145000
b10010001 !
13
14
17
1#
#146000
b10010011 !
b10010010 !
03
12
04
07
0#
#147000
b10010011 !
13
14
17
1#
#148000
b10010111 !
b10010101 !
b10010100 !
03
02
1/
04
07
0#
#149000
b10010101 !
13
14
17
1#
#150000
b10010111 !
b10010110 !
03
12
04
07
0#
#151000
b10010111 !
13
14
17
1#
#152000
b10011111 !
b10011011 !
b10011001 !
b10011000 !
03
02
0/
1.
04
07
0#
#153000
b10011001 !
13
14
17
1#
#154000
b10011011 !
b10011010 !
03
12
04
07
0#
#155000
b10011011 !
13
14
17
1#
#156000
b10011111 !
b10011101 !
b10011100 !
03
02
1/
04
07
0#
#157000
b10011101 !
13
14
17
1#
#158000
b10011111 !
b10011110 !
03
12
04
07
0#
#159000
b10011111 !
13
14
17
1#
#160000
b10111111 !
b10101111 !
b10100111 !
b10100011 !
b10100001 !
b10100000 !
03
02
0/
0.
06
1,
04
07
0#
#161000
b10100001 !
13
14
17
1#
#162000
b10100011 !
b10100010 !
03
12
04
07
0#
#163000
b10100011 !
13
14
17
1#
#164000
b10100111 !
b10100101 !
b10100100 !
03
02
1/
04
07
0#
#165000
b10100101 !
13
14
17
1#
#166000
b10100111 !
b10100110 !
03
12
04
07
0#
#167000
b10100111 !
13
14
17
1#
#168000
b10101111 !
b10101011 !
b10101001 !
b10101000 !
03
02
0/
1.
04
07
0#
#169000
b10101001 !
13
14
17
1#
#170000
b10101011 !
b10101010 !
03
12
04
07
0#
#171000
b10101011 !
13
14
17
1#
#172000
b10101111 !
b10101101 !
b10101100 !
03
02
1/
04
07
0#
#173000
b10101101 !
13
14
17
1#
#174000
b10101111 !
b10101110 !
03
12
04
07
0#
#175000
b10101111 !
13
14
17
1#
#176000
b10111111 !
b10110111 !
b10110011 !
b10110001 !
b10110000 !
03
02
0/
0.
16
04
07
0#
#177000
b10110001 !
13
14
17
1#
#178000
b10110011 !
b10110010 !
03
12
04
07
0#
#179000
b10110011 !
13
14
17
1#
#180000
b10110111 !
b10110101 !
b10110100 !
03
02
1/
04
07
0#
#181000
b10110101 !
13
14
17
1#
#182000
b10110111 !
b10110110 !
03
12
04
07
0#
#183000
b10110111 !
13
14
17
1#
#184000
b10111111 !
b10111011 !
b10111001 !
b10111000 !
03
02
0/
1.
04
07
0#
#185000
b10111001 !
13
14
17
1#
#186000
b10111011 !
b10111010 !
03
12
04
07
0#
#187000
b10111011 !
13
14
17
1#
#188000
b10111111 !
b10111101 !
b10111100 !
03
02
1/
04
07
0#
#189000
b10111101 !
13
14
17
1#
#190000
b10111111 !
b10111110 !
03
12
04
07
0#
#191000
b10111111 !
13
14
17
1#
#192000
b11111111 !
b11011111 !
b11001111 !
b11000111 !
b11000011 !
b11000001 !
b11000000 !
03
02
0/
0.
06
0,
1-
04
07
0#
#193000
b11000001 !
13
14
17
1#
#194000
b11000011 !
b11000010 !
03
12
04
07
0#
#195000
b11000011 !
13
14
17
1#
#196000
b11000111 !
b11000101 !
b11000100 !
03
02
1/
04
07
0#
#197000
b11000101 !
13
14
17
1#
#198000
b11000111 !
b11000110 !
03
12
04
07
0#
#199000
b11000111 !
13
14
17
1#
#200000
b11001111 !
b11001011 !
b11001001 !
b11001000 !
03
02
0/
1.
04
07
0#
#201000
b11001001 !
13
14
17
1#
#202000
b11001011 !
b11001010 !
03
12
04
07
0#
#203000
b11001011 !
13
14
17
1#
#204000
b11001111 !
b11001101 !
b11001100 !
03
02
1/
04
07
0#
#205000
b11001101 !
13
14
17
1#
#206000
b11001111 !
b11001110 !
03
12
04
07
0#
#207000
b11001111 !
13
14
17
1#
#208000
b11011111 !
b11010111 !
b11010011 !
b11010001 !
b11010000 !
03
02
0/
0.
16
04
07
0#
#209000
b11010001 !
13
14
17
1#
#210000
b11010011 !
b11010010 !
03
12
04
07
0#
#211000
b11010011 !
13
14
17
1#
#212000
b11010111 !
b11010101 !
b11010100 !
03
02
1/
04
07
0#
#213000
b11010101 !
13
14
17
1#
#214000
b11010111 !
b11010110 !
03
12
04
07
0#
#215000
b11010111 !
13
14
17
1#
#216000
b11011111 !
b11011011 !
b11011001 !
b11011000 !
03
02
0/
1.
04
07
0#
#217000
b11011001 !
13
14
17
1#
#218000
b11011011 !
b11011010 !
03
12
04
07
0#
#219000
b11011011 !
13
14
17
1#
#220000
b11011111 !
b11011101 !
b11011100 !
03
02
1/
04
07
0#
#221000
b11011101 !
13
14
17
1#
#222000
b11011111 !
b11011110 !
03
12
04
07
0#
#223000
b11011111 !
13
14
17
1#
#224000
b11111111 !
b11101111 !
b11100111 !
b11100011 !
b11100001 !
b11100000 !
03
02
0/
0.
06
1,
04
07
0#
#225000
b11100001 !
13
14
17
1#
#226000
b11100011 !
b11100010 !
03
12
04
07
0#
#227000
b11100011 !
13
14
17
1#
#228000
b11100111 !
b11100101 !
b11100100 !
03
02
1/
04
07
0#
#229000
b11100101 !
13
14
17
1#
#230000
b11100111 !
b11100110 !
03
12
04
07
0#
#231000
b11100111 !
13
14
17
1#
#232000
b11101111 !
b11101011 !
b11101001 !
b11101000 !
03
02
0/
1.
04
07
0#
#233000
b11101001 !
13
14
17
1#
#234000
b11101011 !
b11101010 !
03
12
04
07
0#
#235000
b11101011 !
13
14
17
1#
#236000
b11101111 !
b11101101 !
b11101100 !
03
02
1/
04
07
0#
#237000
b11101101 !
13
14
17
1#
#238000
b11101111 !
b11101110 !
03
12
04
07
0#
#239000
b11101111 !
13
14
17
1#
#240000
b11111111 !
b11110111 !
b11110011 !
b11110001 !
b11110000 !
03
02
0/
0.
16
04
07
0#
#241000
b11110001 !
13
14
17
1#
#242000
b11110011 !
b11110010 !
03
12
04
07
0#
#243000
b11110011 !
13
14
17
1#
#244000
b11110111 !
b11110101 !
b11110100 !
03
02
1/
04
07
0#
#245000
b11110101 !
13
14
17
1#
#246000
b11110111 !
b11110110 !
03
12
04
07
0#
#247000
b11110111 !
13
14
17
1#
#248000
b11111111 !
b11111011 !
b11111001 !
b11111000 !
03
02
0/
1.
04
07
0#
#249000
b11111001 !
13
14
17
1#
#250000
b11111011 !
b11111010 !
03
12
04
07
0#
#251000
b11111011 !
13
14
17
1#
#252000
b11111111 !
b11111101 !
b11111100 !
03
02
1/
04
07
0#
#253000
b11111101 !
13
14
17
1#
#254000
b11111111 !
b11111110 !
03
12
04
07
0#
#255000
b11111111 !
13
14
17
1#
#256000
b1 "
b1111111 !
b111111 !
b11111 !
b1111 !
b111 !
b11 !
b1 !
b0 !
03
02
0/
0.
06
0,
0-
05
10
04
07
0#
#257000
b1 !
13
#258000
b11 !
b10 !
03
12
14
17
1#
#259000
b11 !
13
#260000
b111 !
b101 !
b100 !
03
02
1/
04
07
0#
#261000
b101 !
13
#262000
b111 !
b110 !
03
12
14
17
1#
#263000
b111 !
13
#264000
b1111 !
b1011 !
b1001 !
b1000 !
03
02
0/
1.
04
07
0#
#265000
b1001 !
13
#266000
b1011 !
b1010 !
03
12
14
17
1#
#267000
b1011 !
13
#268000
b1111 !
b1101 !
b1100 !
03
02
1/
04
07
0#
#269000
b1101 !
13
#270000
b1111 !
b1110 !
03
12
14
17
1#
#271000
b1111 !
13
#272000
b11111 !
b10111 !
b10011 !
b10001 !
b10000 !
03
02
0/
0.
16
04
07
0#
#273000
b10001 !
13
#274000
b10011 !
b10010 !
03
12
14
17
1#
#275000
b10011 !
13
#276000
b10111 !
b10101 !
b10100 !
03
02
1/
04
07
0#
#277000
b10101 !
13
#278000
b10111 !
b10110 !
03
12
14
17
1#
#279000
b10111 !
13
#280000
b11111 !
b11011 !
b11001 !
b11000 !
03
02
0/
1.
04
07
0#
#281000
b11001 !
13
#282000
b11011 !
b11010 !
03
12
14
17
1#
#283000
b11011 !
13
#284000
b11111 !
b11101 !
b11100 !
03
02
1/
04
07
0#
#285000
b11101 !
13
#286000
b11111 !
b11110 !
03
12
14
17
1#
#287000
b11111 !
13
#288000
b111111 !
b101111 !
b100111 !
b100011 !
b100001 !
b100000 !
03
02
0/
0.
06
1,
04
07
0#
#289000
b100001 !
13
#290000
b100011 !
b100010 !
03
12
14
17
1#
#291000
b100011 !
13
#292000
b100111 !
b100101 !
b100100 !
03
02
1/
04
07
0#
#293000
b100101 !
13
#294000
b100111 !
b100110 !
03
12
14
17
1#
#295000
b100111 !
13
#296000
b101111 !
b101011 !
b101001 !
b101000 !
03
02
0/
1.
04
07
0#
#297000
b101001 !
13
#298000
b101011 !
b101010 !
03
12
14
17
1#
#299000
b101011 !
13
#300000
b101111 !
b101101 !
b101100 !
03
02
1/
04
07
0#
#301000
b101101 !
13
#302000
b101111 !
b101110 !
03
12
14
17
1#
#303000
b101111 !
13
#304000
b111111 !
b110111 !
b110011 !
b110001 !
b110000 !
03
02
0/
0.
16
04
07
0#
#305000
b110001 !
13
#306000
b110011 !
b110010 !
03
12
14
17
1#
#307000
b110011 !
13
#308000
b110111 !
b110101 !
b110100 !
03
02
1/
04
07
0#
#309000
b110101 !
13
#310000
b110111 !
b110110 !
03
12
14
17
1#
#311000
b110111 !
13
#312000
b111111 !
b111011 !
b111001 !
b111000 !
03
02
0/
1.
04
07
0#
#313000
b111001 !
13
#314000
b111011 !
b111010 !
03
12
14
17
1#
#315000
b111011 !
13
#316000
b111111 !
b111101 !
b111100 !
03
02
1/
04
07
0#
#317000
b111101 !
13
#318000
b111111 !
b111110 !
03
12
14
17
1#
#319000
b111111 !
13
#320000
b1111111 !
b1011111 !
b1001111 !
b1000111 !
b1000011 !
b1000001 !
b1000000 !
03
02
0/
0.
06
0,
1-
04
07
0#
#321000
b1000001 !
13
#322000
b1000011 !
b1000010 !
03
12
14
17
1#
#323000
b1000011 !
13
#324000
b1000111 !
b1000101 !
b1000100 !
03
02
1/
04
07
0#
#325000
b1000101 !
13
#326000
b1000111 !
b1000110 !
03
12
14
17
1#
#327000
b1000111 !
13
#328000
b1001111 !
b1001011 !
b1001001 !
b1001000 !
03
02
0/
1.
04
07
0#
#329000
b1001001 !
13
#330000
b1001011 !
b1001010 !
03
12
14
17
1#
#331000
b1001011 !
13
#332000
b1001111 !
b1001101 !
b1001100 !
03
02
1/
04
07
0#
#333000
b1001101 !
13
#334000
b1001111 !
b1001110 !
03
12
14
17
1#
#335000
b1001111 !
13
#336000
b1011111 !
b1010111 !
b1010011 !
b1010001 !
b1010000 !
03
02
0/
0.
16
04
07
0#
#337000
b1010001 !
13
#338000
b1010011 !
b1010010 !
03
12
14
17
1#
#339000
b1010011 !
13
#340000
b1010111 !
b1010101 !
b1010100 !
03
02
1/
04
07
0#
#341000
b1010101 !
13
#342000
b1010111 !
b1010110 !
03
12
14
17
1#
#343000
b1010111 !
13
#344000
b1011111 !
b1011011 !
b1011001 !
b1011000 !
03
02
0/
1.
04
07
0#
#345000
b1011001 !
13
#346000
b1011011 !
b1011010 !
03
12
14
17
1#
#347000
b1011011 !
13
#348000
b1011111 !
b1011101 !
b1011100 !
03
02
1/
04
07
0#
#349000
b1011101 !
13
#350000
b1011111 !
b1011110 !
03
12
14
17
1#
#351000
b1011111 !
13
#352000
b1111111 !
b1101111 !
b1100111 !
b1100011 !
b1100001 !
b1100000 !
03
02
0/
0.
06
1,
04
07
0#
#353000
b1100001 !
13
#354000
b1100011 !
b1100010 !
03
12
14
17
1#
#355000
b1100011 !
13
#356000
b1100111 !
b1100101 !
b1100100 !
03
02
1/
04
07
0#
#357000
b1100101 !
13
#358000
b1100111 !
b1100110 !
03
12
14
17
1#
#359000
b1100111 !
13
#360000
b1101111 !
b1101011 !
b1101001 !
b1101000 !
03
02
0/
1.
04
07
0#
#361000
b1101001 !
13
#362000
b1101011 !
b1101010 !
03
12
14
17
1#
#363000
b1101011 !
13
#364000
b1101111 !
b1101101 !
b1101100 !
03
02
1/
04
07
0#
#365000
b1101101 !
13
#366000
b1101111 !
b1101110 !
03
12
14
17
1#
#367000
b1101111 !
13
#368000
b1111111 !
b1110111 !
b1110011 !
b1110001 !
b1110000 !
03
02
0/
0.
16
04
07
0#
#369000
b1110001 !
13
#370000
b1110011 !
b1110010 !
03
12
14
17
1#
#371000
b1110011 !
13
#372000
b1110111 !
b1110101 !
b1110100 !
03
02
1/
04
07
0#
#373000
b1110101 !
13
#374000
b1110111 !
b1110110 !
03
12
14
17
1#
#375000
b1110111 !
13
#376000
b1111111 !
b1111011 !
b1111001 !
b1111000 !
03
02
0/
1.
04
07
0#
#377000
b1111001 !
13
#378000
b1111011 !
b1111010 !
03
12
14
17
1#
#379000
b1111011 !
13
#380000
b1111111 !
b1111101 !
b1111100 !
03
02
1/
04
07
0#
#381000
b1111101 !
13
#382000
b1111111 !
b1111110 !
03
12
14
17
1#
#383000
b1111111 !
13
#384000
b11111111 !
b10111111 !
b10011111 !
b10001111 !
b10000111 !
b10000011 !
b10000001 !
b10000000 !
03
02
0/
0.
06
0,
0-
15
04
07
0#
#385000
b10000001 !
13
#386000
b10000011 !
b10000010 !
03
12
14
17
1#
#387000
b10000011 !
13
#388000
b10000111 !
b10000101 !
b10000100 !
03
02
1/
04
07
0#
#389000
b10000101 !
13
#390000
b10000111 !
b10000110 !
03
12
14
17
1#
#391000
b10000111 !
13
#392000
b10001111 !
b10001011 !
b10001001 !
b10001000 !
03
02
0/
1.
04
07
0#
#393000
b10001001 !
13
#394000
b10001011 !
b10001010 !
03
12
14
17
1#
#395000
b10001011 !
13
#396000
b10001111 !
b10001101 !
b10001100 !
03
02
1/
04
07
0#
#397000
b10001101 !
13
#398000
b10001111 !
b10001110 !
03
12
14
17
1#
#399000
b10001111 !
13
#400000
b10011111 !
b10010111 !
b10010011 !
b10010001 !
b10010000 !
03
02
0/
0.
16
04
07
0#
#401000
b10010001 !
13
#402000
b10010011 !
b10010010 !
03
12
14
17
1#
#403000
b10010011 !
13
#404000
b10010111 !
b10010101 !
b10010100 !
03
02
1/
04
07
0#
#405000
b10010101 !
13
#406000
b10010111 !
b10010110 !
03
12
14
17
1#
#407000
b10010111 !
13
#408000
b10011111 !
b10011011 !
b10011001 !
b10011000 !
03
02
0/
1.
04
07
0#
#409000
b10011001 !
13
#410000
b10011011 !
b10011010 !
03
12
14
17
1#
#411000
b10011011 !
13
#412000
b10011111 !
b10011101 !
b10011100 !
03
02
1/
04
07
0#
#413000
b10011101 !
13
#414000
b10011111 !
b10011110 !
03
12
14
17
1#
#415000
b10011111 !
13
#416000
b10111111 !
b10101111 !
b10100111 !
b10100011 !
b10100001 !
b10100000 !
03
02
0/
0.
06
1,
04
07
0#
#417000
b10100001 !
13
#418000
b10100011 !
b10100010 !
03
12
14
17
1#
#419000
b10100011 !
13
#420000
b10100111 !
b10100101 !
b10100100 !
03
02
1/
04
07
0#
#421000
b10100101 !
13
#422000
b10100111 !
b10100110 !
03
12
14
17
1#
#423000
b10100111 !
13
#424000
b10101111 !
b10101011 !
b10101001 !
b10101000 !
03
02
0/
1.
04
07
0#
#425000
b10101001 !
13
#426000
b10101011 !
b10101010 !
03
12
14
17
1#
#427000
b10101011 !
13
#428000
b10101111 !
b10101101 !
b10101100 !
03
02
1/
04
07
0#
#429000
b10101101 !
13
#430000
b10101111 !
b10101110 !
03
12
14
17
1#
#431000
b10101111 !
13
#432000
b10111111 !
b10110111 !
b10110011 !
b10110001 !
b10110000 !
03
02
0/
0.
16
04
07
0#
#433000
b10110001 !
13
#434000
b10110011 !
b10110010 !
03
12
14
17
1#
#435000
b10110011 !
13
#436000
b10110111 !
b10110101 !
b10110100 !
03
02
1/
04
07
0#
#437000
b10110101 !
13
#438000
b10110111 !
b10110110 !
03
12
14
17
1#
#439000
b10110111 !
13
#440000
b10111111 !
b10111011 !
b10111001 !
b10111000 !
03
02
0/
1.
04
07
0#
#441000
b10111001 !
13
#442000
b10111011 !
b10111010 !
03
12
14
17
1#
#443000
b10111011 !
13
#444000
b10111111 !
b10111101 !
b10111100 !
03
02
1/
04
07
0#
#445000
b10111101 !
13
#446000
b10111111 !
b10111110 !
03
12
14
17
1#
#447000
b10111111 !
13
#448000
b11111111 !
b11011111 !
b11001111 !
b11000111 !
b11000011 !
b11000001 !
b11000000 !
03
02
0/
0.
06
0,
1-
04
07
0#
#449000
b11000001 !
13
#450000
b11000011 !
b11000010 !
03
12
14
17
1#
#451000
b11000011 !
13
#452000
b11000111 !
b11000101 !
b11000100 !
03
02
1/
04
07
0#
#453000
b11000101 !
13
#454000
b11000111 !
b11000110 !
03
12
14
17
1#
#455000
b11000111 !
13
#456000
b11001111 !
b11001011 !
b11001001 !
b11001000 !
03
02
0/
1.
04
07
0#
#457000
b11001001 !
13
#458000
b11001011 !
b11001010 !
03
12
14
17
1#
#459000
b11001011 !
13
#460000
b11001111 !
b11001101 !
b11001100 !
03
02
1/
04
07
0#
#461000
b11001101 !
13
#462000
b11001111 !
b11001110 !
03
12
14
17
1#
#463000
b11001111 !
13
#464000
b11011111 !
b11010111 !
b11010011 !
b11010001 !
b11010000 !
03
02
0/
0.
16
04
07
0#
#465000
b11010001 !
13
#466000
b11010011 !
b11010010 !
03
12
14
17
1#
#467000
b11010011 !
13
#468000
b11010111 !
b11010101 !
b11010100 !
03
02
1/
04
07
0#
#469000
b11010101 !
13
#470000
b11010111 !
b11010110 !
03
12
14
17
1#
#471000
b11010111 !
13
#472000
b11011111 !
b11011011 !
b11011001 !
b11011000 !
03
02
0/
1.
04
07
0#
#473000
b11011001 !
13
#474000
b11011011 !
b11011010 !
03
12
14
17
1#
#475000
b11011011 !
13
#476000
b11011111 !
b11011101 !
b11011100 !
03
02
1/
04
07
0#
#477000
b11011101 !
13
#478000
b11011111 !
b11011110 !
03
12
14
17
1#
#479000
b11011111 !
13
#480000
b11111111 !
b11101111 !
b11100111 !
b11100011 !
b11100001 !
b11100000 !
03
02
0/
0.
06
1,
04
07
0#
#481000
b11100001 !
13
#482000
b11100011 !
b11100010 !
03
12
14
17
1#
#483000
b11100011 !
13
#484000
b11100111 !
b11100101 !
b11100100 !
03
02
1/
04
07
0#
#485000
b11100101 !
13
#486000
b11100111 !
b11100110 !
03
12
14
17
1#
#487000
b11100111 !
13
#488000
b11101111 !
b11101011 !
b11101001 !
b11101000 !
03
02
0/
1.
04
07
0#
#489000
b11101001 !
13
#490000
b11101011 !
b11101010 !
03
12
14
17
1#
#491000
b11101011 !
13
#492000
b11101111 !
b11101101 !
b11101100 !
03
02
1/
04
07
0#
#493000
b11101101 !
13
#494000
b11101111 !
b11101110 !
03
12
14
17
1#
#495000
b11101111 !
13
#496000
b11111111 !
b11110111 !
b11110011 !
b11110001 !
b11110000 !
03
02
0/
0.
16
04
07
0#
#497000
b11110001 !
13
#498000
b11110011 !
b11110010 !
03
12
14
17
1#
#499000
b11110011 !
13
#500000
b11110111 !
b11110101 !
b11110100 !
03
02
1/
04
07
0#
#501000
b11110101 !
13
#502000
b11110111 !
b11110110 !
03
12
14
17
1#
#503000
b11110111 !
13
#504000
b11111111 !
b11111011 !
b11111001 !
b11111000 !
03
02
0/
1.
04
07
0#
#505000
b11111001 !
13
#506000
b11111011 !
b11111010 !
03
12
14
17
1#
#507000
b11111011 !
13
#508000
b11111111 !
b11111101 !
b11111100 !
03
02
1/
04
07
0#
#509000
b11111101 !
13
#510000
b11111111 !
b11111110 !
03
12
14
17
1#
#511000
b11111111 !
13
#512000
b11 "
b10 "
b1111111 !
b111111 !
b11111 !
b1111 !
b111 !
b11 !
b1 !
b0 !
03
02
0/
0.
06
0,
0-
05
00
11
04
07
0#
#513000
b1 !
13
#514000
b11 !
b10 !
03
12
#515000
b11 !
13
#516000
b111 !
b101 !
b100 !
03
02
1/
14
17
1#
#517000
b101 !
13
#518000
b111 !
b110 !
03
12
#519000
b111 !
13
#520000
b1111 !
b1011 !
b1001 !
b1000 !
03
02
0/
1.
04
07
0#
#521000
b1001 !
13
#522000
b1011 !
b1010 !
03
12
#523000
b1011 !
13
#524000
b1111 !
b1101 !
b1100 !
03
02
1/
14
17
1#
#525000
b1101 !
13
#526000
b1111 !
b1110 !
03
12
#527000
b1111 !
13
#528000
b11111 !
b10111 !
b10011 !
b10001 !
b10000 !
03
02
0/
0.
16
04
07
0#
#529000
b10001 !
13
#530000
b10011 !
b10010 !
03
12
#531000
b10011 !
13
#532000
b10111 !
b10101 !
b10100 !
03
02
1/
14
17
1#
